-- Merging decision tree log ---
manifest
ADDED from /home/embed/Hardik_Projects/Motocade_Projects/client_code/motocade_android_code/app/src/main/AndroidManifest.xml:2:1-433:12
	package
		ADDED from /home/embed/Hardik_Projects/Motocade_Projects/client_code/motocade_android_code/app/src/main/AndroidManifest.xml:3:5-31
		INJECTED from /home/embed/Hardik_Projects/Motocade_Projects/client_code/motocade_android_code/app/src/main/AndroidManifest.xml
		INJECTED from /home/embed/Hardik_Projects/Motocade_Projects/client_code/motocade_android_code/app/src/main/AndroidManifest.xml
	android:versionName
		INJECTED from /home/embed/Hardik_Projects/Motocade_Projects/client_code/motocade_android_code/app/src/main/AndroidManifest.xml
		INJECTED from /home/embed/Hardik_Projects/Motocade_Projects/client_code/motocade_android_code/app/src/main/AndroidManifest.xml
	xmlns:android
		ADDED from /home/embed/Hardik_Projects/Motocade_Projects/client_code/motocade_android_code/app/src/main/AndroidManifest.xml:2:11-69
	android:versionCode
		INJECTED from /home/embed/Hardik_Projects/Motocade_Projects/client_code/motocade_android_code/app/src/main/AndroidManifest.xml
		INJECTED from /home/embed/Hardik_Projects/Motocade_Projects/client_code/motocade_android_code/app/src/main/AndroidManifest.xml
uses-permission#android.permission.ACCESS_COARSE_LOCATION
ADDED from /home/embed/Hardik_Projects/Motocade_Projects/client_code/motocade_android_code/app/src/main/AndroidManifest.xml:5:5-80
	android:name
		ADDED from /home/embed/Hardik_Projects/Motocade_Projects/client_code/motocade_android_code/app/src/main/AndroidManifest.xml:5:22-78
uses-permission#android.permission.ACCESS_FINE_LOCATION
ADDED from /home/embed/Hardik_Projects/Motocade_Projects/client_code/motocade_android_code/app/src/main/AndroidManifest.xml:6:5-78
	android:name
		ADDED from /home/embed/Hardik_Projects/Motocade_Projects/client_code/motocade_android_code/app/src/main/AndroidManifest.xml:6:22-76
uses-permission#android.permission.ACCESS_NETWORK_STATE
ADDED from /home/embed/Hardik_Projects/Motocade_Projects/client_code/motocade_android_code/app/src/main/AndroidManifest.xml:7:5-78
MERGED from [com.google.android.gms:play-services-maps:10.2.6] /home/embed/.android/build-cache/d0aea552e33610d82def2fde0c28d0ccff555d23/output/AndroidManifest.xml:19:5-78
MERGED from [com.google.android.gms:play-services-ads-lite:10.2.6] /home/embed/.android/build-cache/ade2a9661efd22bfa241e63e897a1ec557e449a1/output/AndroidManifest.xml:20:5-78
MERGED from [com.couchbase.lite:couchbase-lite-android:1.4.0] /home/embed/.android/build-cache/1c3907f732e28c29ed0b59648a6f68c61a7d888e/output/AndroidManifest.xml:12:5-79
MERGED from [com.google.firebase:firebase-analytics:10.2.6] /home/embed/.android/build-cache/df9fb2b7e50eebde892936c04625b3e4324bd7f8/output/AndroidManifest.xml:21:5-78
MERGED from [com.google.firebase:firebase-analytics-impl:10.2.6] /home/embed/.android/build-cache/694881e75b8f54ef962fc75207eadea24e3869be/output/AndroidManifest.xml:21:5-78
MERGED from [com.google.firebase:firebase-iid:10.2.6] /home/embed/.android/build-cache/58d80fbb84b32fdfb1a91a12abab3c29f2f1e52b/output/AndroidManifest.xml:19:5-78
	android:name
		ADDED from /home/embed/Hardik_Projects/Motocade_Projects/client_code/motocade_android_code/app/src/main/AndroidManifest.xml:7:22-76
uses-permission#android.permission.INTERNET
ADDED from /home/embed/Hardik_Projects/Motocade_Projects/client_code/motocade_android_code/app/src/main/AndroidManifest.xml:8:5-66
MERGED from [com.crashlytics.sdk.android:crashlytics:2.7.0] /home/embed/.android/build-cache/26f3ead7446bc6a9bf43af91628fb9e28183ad7a/output/AndroidManifest.xml:9:5-67
MERGED from [com.crashlytics.sdk.android:beta:1.2.6] /home/embed/.android/build-cache/5602cf192dbe21f16534d02e9252e65559b4d020/output/AndroidManifest.xml:9:5-67
MERGED from [com.crashlytics.sdk.android:crashlytics-core:2.4.0] /home/embed/.android/build-cache/cbc192205097924521ca54a6e01c9361a2dc1755/output/AndroidManifest.xml:52:5-67
MERGED from [com.crashlytics.sdk.android:answers:1.4.0] /home/embed/.android/build-cache/8dfdcad09124a03ec997ac17b9c941266b0aa4b4/output/AndroidManifest.xml:9:5-67
MERGED from [io.fabric.sdk.android:fabric:1.4.0] /home/embed/.android/build-cache/b1995977d0acf2e0e733ffbcaa838824f582de11/output/AndroidManifest.xml:29:5-67
MERGED from [com.google.android.gms:play-services-maps:10.2.6] /home/embed/.android/build-cache/d0aea552e33610d82def2fde0c28d0ccff555d23/output/AndroidManifest.xml:20:5-66
MERGED from [com.google.android.gms:play-services-ads-lite:10.2.6] /home/embed/.android/build-cache/ade2a9661efd22bfa241e63e897a1ec557e449a1/output/AndroidManifest.xml:19:5-66
MERGED from [com.couchbase.lite:couchbase-lite-android:1.4.0] /home/embed/.android/build-cache/1c3907f732e28c29ed0b59648a6f68c61a7d888e/output/AndroidManifest.xml:11:5-67
MERGED from [com.google.firebase:firebase-analytics:10.2.6] /home/embed/.android/build-cache/df9fb2b7e50eebde892936c04625b3e4324bd7f8/output/AndroidManifest.xml:20:5-66
MERGED from [com.google.firebase:firebase-analytics-impl:10.2.6] /home/embed/.android/build-cache/694881e75b8f54ef962fc75207eadea24e3869be/output/AndroidManifest.xml:20:5-66
MERGED from [com.google.firebase:firebase-iid:10.2.6] /home/embed/.android/build-cache/58d80fbb84b32fdfb1a91a12abab3c29f2f1e52b/output/AndroidManifest.xml:20:5-66
	android:name
		ADDED from /home/embed/Hardik_Projects/Motocade_Projects/client_code/motocade_android_code/app/src/main/AndroidManifest.xml:8:22-64
uses-permission#android.permission.CAMERA
ADDED from /home/embed/Hardik_Projects/Motocade_Projects/client_code/motocade_android_code/app/src/main/AndroidManifest.xml:9:5-64
	android:name
		ADDED from /home/embed/Hardik_Projects/Motocade_Projects/client_code/motocade_android_code/app/src/main/AndroidManifest.xml:9:22-62
uses-permission#android.permission.WRITE_EXTERNAL_STORAGE
ADDED from /home/embed/Hardik_Projects/Motocade_Projects/client_code/motocade_android_code/app/src/main/AndroidManifest.xml:10:5-80
	android:name
		ADDED from /home/embed/Hardik_Projects/Motocade_Projects/client_code/motocade_android_code/app/src/main/AndroidManifest.xml:10:22-78
uses-permission#android.permission.READ_CONTACTS
ADDED from /home/embed/Hardik_Projects/Motocade_Projects/client_code/motocade_android_code/app/src/main/AndroidManifest.xml:11:5-71
	android:name
		ADDED from /home/embed/Hardik_Projects/Motocade_Projects/client_code/motocade_android_code/app/src/main/AndroidManifest.xml:11:22-69
uses-permission#android.permission.READ_PHONE_STATE
ADDED from /home/embed/Hardik_Projects/Motocade_Projects/client_code/motocade_android_code/app/src/main/AndroidManifest.xml:12:5-74
	android:name
		ADDED from /home/embed/Hardik_Projects/Motocade_Projects/client_code/motocade_android_code/app/src/main/AndroidManifest.xml:12:22-72
uses-permission#android.permission.CALL_PHONE
ADDED from /home/embed/Hardik_Projects/Motocade_Projects/client_code/motocade_android_code/app/src/main/AndroidManifest.xml:13:5-69
	android:name
		ADDED from /home/embed/Hardik_Projects/Motocade_Projects/client_code/motocade_android_code/app/src/main/AndroidManifest.xml:13:22-66
uses-permission#android.permission.GET_TASKS
ADDED from /home/embed/Hardik_Projects/Motocade_Projects/client_code/motocade_android_code/app/src/main/AndroidManifest.xml:14:5-68
	android:name
		ADDED from /home/embed/Hardik_Projects/Motocade_Projects/client_code/motocade_android_code/app/src/main/AndroidManifest.xml:14:22-65
uses-permission#android.permission.WAKE_LOCK
ADDED from /home/embed/Hardik_Projects/Motocade_Projects/client_code/motocade_android_code/app/src/main/AndroidManifest.xml:15:5-68
MERGED from [com.google.firebase:firebase-analytics:10.2.6] /home/embed/.android/build-cache/df9fb2b7e50eebde892936c04625b3e4324bd7f8/output/AndroidManifest.xml:22:5-67
MERGED from [com.google.firebase:firebase-analytics-impl:10.2.6] /home/embed/.android/build-cache/694881e75b8f54ef962fc75207eadea24e3869be/output/AndroidManifest.xml:22:5-67
MERGED from [com.google.firebase:firebase-iid:10.2.6] /home/embed/.android/build-cache/58d80fbb84b32fdfb1a91a12abab3c29f2f1e52b/output/AndroidManifest.xml:21:5-67
	android:name
		ADDED from /home/embed/Hardik_Projects/Motocade_Projects/client_code/motocade_android_code/app/src/main/AndroidManifest.xml:15:22-65
uses-feature#android.hardware.location.gps
ADDED from /home/embed/Hardik_Projects/Motocade_Projects/client_code/motocade_android_code/app/src/main/AndroidManifest.xml:16:5-18:35
	android:required
		ADDED from /home/embed/Hardik_Projects/Motocade_Projects/client_code/motocade_android_code/app/src/main/AndroidManifest.xml:18:9-32
	android:name
		ADDED from /home/embed/Hardik_Projects/Motocade_Projects/client_code/motocade_android_code/app/src/main/AndroidManifest.xml:17:9-53
uses-permission#android.permission.RECEIVE_BOOT_COMPLETED
ADDED from /home/embed/Hardik_Projects/Motocade_Projects/client_code/motocade_android_code/app/src/main/AndroidManifest.xml:19:5-81
	android:name
		ADDED from /home/embed/Hardik_Projects/Motocade_Projects/client_code/motocade_android_code/app/src/main/AndroidManifest.xml:19:22-78
application
ADDED from /home/embed/Hardik_Projects/Motocade_Projects/client_code/motocade_android_code/app/src/main/AndroidManifest.xml:21:5-432:19
MERGED from [motocade_android_code:lib:unspecified] /home/embed/Hardik_Projects/Motocade_Projects/client_code/motocade_android_code/lib/build/intermediates/bundles/default/AndroidManifest.xml:9:5-13:19
MERGED from [com.crashlytics.sdk.android:crashlytics:2.7.0] /home/embed/.android/build-cache/26f3ead7446bc6a9bf43af91628fb9e28183ad7a/output/AndroidManifest.xml:11:5-17:19
MERGED from [com.crashlytics.sdk.android:beta:1.2.6] /home/embed/.android/build-cache/5602cf192dbe21f16534d02e9252e65559b4d020/output/AndroidManifest.xml:11:5-20
MERGED from [com.crashlytics.sdk.android:crashlytics-core:2.4.0] /home/embed/.android/build-cache/cbc192205097924521ca54a6e01c9361a2dc1755/output/AndroidManifest.xml:54:5-20
MERGED from [com.crashlytics.sdk.android:answers:1.4.0] /home/embed/.android/build-cache/8dfdcad09124a03ec997ac17b9c941266b0aa4b4/output/AndroidManifest.xml:11:5-20
MERGED from [io.fabric.sdk.android:fabric:1.4.0] /home/embed/.android/build-cache/b1995977d0acf2e0e733ffbcaa838824f582de11/output/AndroidManifest.xml:31:5-20
MERGED from [com.android.support:cardview-v7:25.3.1] /home/embed/.android/build-cache/eb61dd3646f1a8f9c6212c2badac561910a94147/output/AndroidManifest.xml:26:5-20
MERGED from [com.android.support:design:25.3.1] /home/embed/.android/build-cache/af341d176c19f6506d46a64aefc69f666bbcd94f/output/AndroidManifest.xml:29:5-20
MERGED from [com.android.support:transition:25.3.1] /home/embed/.android/build-cache/3065f009c3c14ffca24b8c53a25d8ac41e8b86f5/output/AndroidManifest.xml:26:5-20
MERGED from [com.facebook.android:facebook-android-sdk:4.6.0] /home/embed/.android/build-cache/139aa10d469a42e669cf154ba7b2d612636a15e0/output/AndroidManifest.xml:28:5-20
MERGED from [com.google.android.gms:play-services-places:10.2.6] /home/embed/.android/build-cache/a1270f7fb32dfc54c5a15f2a3091c8358468bdf8/output/AndroidManifest.xml:18:5-19
MERGED from [com.google.android.gms:play-services-maps:10.2.6] /home/embed/.android/build-cache/d0aea552e33610d82def2fde0c28d0ccff555d23/output/AndroidManifest.xml:24:5-19
MERGED from [com.google.android.gms:play-services-location:10.2.6] /home/embed/.android/build-cache/99d371e9ebab3222d28aae8552396b4d45280e60/output/AndroidManifest.xml:4:5-19
MERGED from [com.google.android.gms:play-services-auth:10.2.6] /home/embed/.android/build-cache/72ea539cc4941c983090607c98d2c1d4600b3935/output/AndroidManifest.xml:19:5-25:19
MERGED from [com.google.firebase:firebase-messaging:10.2.6] /home/embed/.android/build-cache/81ed2a5070d22b5049f1b1d7c8a32452d5006022/output/AndroidManifest.xml:19:5-29:19
MERGED from [com.google.firebase:firebase-ads:10.2.6] /home/embed/.android/build-cache/d48917c22c2b70b5bafd294edc7004ad03b753fe/output/AndroidManifest.xml:5:5-20
MERGED from [com.google.android.gms:play-services-ads-lite:10.2.6] /home/embed/.android/build-cache/ade2a9661efd22bfa241e63e897a1ec557e449a1/output/AndroidManifest.xml:23:5-27:19
MERGED from [com.google.android.gms:play-services-clearcut:10.2.6] /home/embed/.android/build-cache/cb65d268b0f11518f155a6bf526a030b5e2829a7/output/AndroidManifest.xml:18:5-19
MERGED from [com.google.android.gms:play-services-base:10.2.6] /home/embed/.android/build-cache/defbfdd0e84623faddfe6229231069426eef1618/output/AndroidManifest.xml:18:5-20:19
MERGED from [com.google.android.gms:play-services-gass:10.2.6] /home/embed/.android/build-cache/0cd4b0c56259e3705df6a023e44f98539b12b6fd/output/AndroidManifest.xml:4:5-19
MERGED from [com.android.volley:volley:1.0.0] /home/embed/.android/build-cache/0245bf7ed516f18df74f5ae30455552b7113b83d/output/AndroidManifest.xml:9:5-20
MERGED from [com.couchbase.lite:couchbase-lite-android:1.4.0] /home/embed/.android/build-cache/1c3907f732e28c29ed0b59648a6f68c61a7d888e/output/AndroidManifest.xml:14:5-20
MERGED from [com.couchbase.lite:couchbase-lite-android-sqlite-custom:1.4.0] /home/embed/.android/build-cache/593ce9455d31cc21f673626d1a7c08c696ec2dc6/output/AndroidManifest.xml:11:5-20
MERGED from [com.android.support.constraint:constraint-layout:1.0.2] /home/embed/.android/build-cache/4463a8b6773b56234d71785af87070dea682482b/output/AndroidManifest.xml:9:5-20
MERGED from [motocade_android_code:innapp_purches:unspecified] /home/embed/Hardik_Projects/Motocade_Projects/client_code/motocade_android_code/innapp_purches/build/intermediates/bundles/default/AndroidManifest.xml:13:5-16:19
MERGED from [com.android.support:appcompat-v7:25.3.1] /home/embed/.android/build-cache/c8bf9efabcf0cec2f1ce4742cf738bed545c7c4f/output/AndroidManifest.xml:29:5-20
MERGED from [com.android.support:animated-vector-drawable:25.3.1] /home/embed/.android/build-cache/90b361c05ca5c195c81ed427d33f67840f9a6398/output/AndroidManifest.xml:26:5-20
MERGED from [com.android.support:support-vector-drawable:25.3.1] /home/embed/.android/build-cache/ff7883c095269aa09919ac6ce8926a7ce52242e0/output/AndroidManifest.xml:26:5-20
MERGED from [com.google.firebase:firebase-core:10.2.6] /home/embed/.android/build-cache/d0a29fbeceeedd4601cf6a3a0ec31d399b574bf8/output/AndroidManifest.xml:5:5-20
MERGED from [com.google.firebase:firebase-analytics:10.2.6] /home/embed/.android/build-cache/df9fb2b7e50eebde892936c04625b3e4324bd7f8/output/AndroidManifest.xml:24:5-33:19
MERGED from [com.google.firebase:firebase-analytics-impl:10.2.6] /home/embed/.android/build-cache/694881e75b8f54ef962fc75207eadea24e3869be/output/AndroidManifest.xml:24:5-28:19
MERGED from [com.google.firebase:firebase-iid:10.2.6] /home/embed/.android/build-cache/58d80fbb84b32fdfb1a91a12abab3c29f2f1e52b/output/AndroidManifest.xml:28:5-49:19
MERGED from [com.google.firebase:firebase-common:10.2.6] /home/embed/.android/build-cache/1521895b07c862418adac879876b5fe280e12073/output/AndroidManifest.xml:4:5-7:19
MERGED from [com.google.android.gms:play-services-tasks:10.2.6] /home/embed/.android/build-cache/5d7f6540dd3b6d7a1a8fa72bc4e33529652668b7/output/AndroidManifest.xml:4:5-19
MERGED from [com.google.android.gms:play-services-basement:10.2.6] /home/embed/.android/build-cache/c367c674b35c19b4faf03ed169522b6c0ba2e3ea/output/AndroidManifest.xml:19:5-21:19
MERGED from [com.android.support:support-v4:25.3.1] /home/embed/.android/build-cache/a9adb8991cebe8c2f23977caedea4f2a541a5d24/output/AndroidManifest.xml:29:5-20
MERGED from [com.android.support:support-fragment:25.3.1] /home/embed/.android/build-cache/5ba1385fc7a5ecb78376e1bd711e31b6964d89fb/output/AndroidManifest.xml:29:5-20
MERGED from [com.android.support:support-media-compat:25.3.1] /home/embed/.android/build-cache/16031099e15f66adfcb1b3147eb31ba5455df5a9/output/AndroidManifest.xml:29:5-20
MERGED from [com.android.support:support-core-ui:25.3.1] /home/embed/.android/build-cache/c6c1eebf2751b13ca3802c0817d7bff628b33937/output/AndroidManifest.xml:29:5-20
MERGED from [com.android.support:support-core-utils:25.3.1] /home/embed/.android/build-cache/5621c808ddef88c582398f4d5569dd03d4007dcb/output/AndroidManifest.xml:29:5-20
MERGED from [com.android.support:support-compat:25.3.1] /home/embed/.android/build-cache/8389dfbaaa960527a8ad29f3c710ec97f02eca4a/output/AndroidManifest.xml:29:5-20
	android:label
		ADDED from /home/embed/Hardik_Projects/Motocade_Projects/client_code/motocade_android_code/app/src/main/AndroidManifest.xml:25:9-41
	android:supportsRtl
		ADDED from /home/embed/Hardik_Projects/Motocade_Projects/client_code/motocade_android_code/app/src/main/AndroidManifest.xml:26:9-35
	android:allowBackup
		ADDED from /home/embed/Hardik_Projects/Motocade_Projects/client_code/motocade_android_code/app/src/main/AndroidManifest.xml:23:9-35
	android:icon
		ADDED from /home/embed/Hardik_Projects/Motocade_Projects/client_code/motocade_android_code/app/src/main/AndroidManifest.xml:24:9-45
	android:largeHeap
		ADDED from /home/embed/Hardik_Projects/Motocade_Projects/client_code/motocade_android_code/app/src/main/AndroidManifest.xml:28:9-33
	android:theme
		ADDED from /home/embed/Hardik_Projects/Motocade_Projects/client_code/motocade_android_code/app/src/main/AndroidManifest.xml:27:9-40
	android:name
		ADDED from /home/embed/Hardik_Projects/Motocade_Projects/client_code/motocade_android_code/app/src/main/AndroidManifest.xml:22:9-63
activity#com.motocade.com.main.activity.SplashActivity
ADDED from /home/embed/Hardik_Projects/Motocade_Projects/client_code/motocade_android_code/app/src/main/AndroidManifest.xml:29:9-36:20
	android:screenOrientation
		ADDED from /home/embed/Hardik_Projects/Motocade_Projects/client_code/motocade_android_code/app/src/main/AndroidManifest.xml:30:13-49
	android:theme
		ADDED from /home/embed/Hardik_Projects/Motocade_Projects/client_code/motocade_android_code/app/src/main/AndroidManifest.xml:31:13-56
	android:name
		ADDED from /home/embed/Hardik_Projects/Motocade_Projects/client_code/motocade_android_code/app/src/main/AndroidManifest.xml:29:19-79
intent-filter#android.intent.action.MAIN+android.intent.category.LAUNCHER
ADDED from /home/embed/Hardik_Projects/Motocade_Projects/client_code/motocade_android_code/app/src/main/AndroidManifest.xml:32:13-35:29
action#android.intent.action.MAIN
ADDED from /home/embed/Hardik_Projects/Motocade_Projects/client_code/motocade_android_code/app/src/main/AndroidManifest.xml:33:17-69
	android:name
		ADDED from /home/embed/Hardik_Projects/Motocade_Projects/client_code/motocade_android_code/app/src/main/AndroidManifest.xml:33:25-66
category#android.intent.category.LAUNCHER
ADDED from /home/embed/Hardik_Projects/Motocade_Projects/client_code/motocade_android_code/app/src/main/AndroidManifest.xml:34:17-77
	android:name
		ADDED from /home/embed/Hardik_Projects/Motocade_Projects/client_code/motocade_android_code/app/src/main/AndroidManifest.xml:34:27-74
activity#com.motocade.com.main.activity.LandingActivity
ADDED from /home/embed/Hardik_Projects/Motocade_Projects/client_code/motocade_android_code/app/src/main/AndroidManifest.xml:39:9-41:58
	android:screenOrientation
		ADDED from /home/embed/Hardik_Projects/Motocade_Projects/client_code/motocade_android_code/app/src/main/AndroidManifest.xml:40:13-49
	android:theme
		ADDED from /home/embed/Hardik_Projects/Motocade_Projects/client_code/motocade_android_code/app/src/main/AndroidManifest.xml:41:13-56
	android:name
		ADDED from /home/embed/Hardik_Projects/Motocade_Projects/client_code/motocade_android_code/app/src/main/AndroidManifest.xml:39:19-80
activity#com.motocade.com.Twiter_manager.OAuthActivity
ADDED from /home/embed/Hardik_Projects/Motocade_Projects/client_code/motocade_android_code/app/src/main/AndroidManifest.xml:44:9-47:58
	android:screenOrientation
		ADDED from /home/embed/Hardik_Projects/Motocade_Projects/client_code/motocade_android_code/app/src/main/AndroidManifest.xml:45:13-49
	android:launchMode
		ADDED from /home/embed/Hardik_Projects/Motocade_Projects/client_code/motocade_android_code/app/src/main/AndroidManifest.xml:46:13-48
	android:theme
		ADDED from /home/embed/Hardik_Projects/Motocade_Projects/client_code/motocade_android_code/app/src/main/AndroidManifest.xml:47:13-56
	android:name
		ADDED from /home/embed/Hardik_Projects/Motocade_Projects/client_code/motocade_android_code/app/src/main/AndroidManifest.xml:44:19-63
activity#com.motocade.com.main.activity.LoginOrSignupActivity
ADDED from /home/embed/Hardik_Projects/Motocade_Projects/client_code/motocade_android_code/app/src/main/AndroidManifest.xml:50:9-53:58
	android:screenOrientation
		ADDED from /home/embed/Hardik_Projects/Motocade_Projects/client_code/motocade_android_code/app/src/main/AndroidManifest.xml:51:13-49
	android:windowSoftInputMode
		ADDED from /home/embed/Hardik_Projects/Motocade_Projects/client_code/motocade_android_code/app/src/main/AndroidManifest.xml:52:13-55
	android:theme
		ADDED from /home/embed/Hardik_Projects/Motocade_Projects/client_code/motocade_android_code/app/src/main/AndroidManifest.xml:53:13-56
	android:name
		ADDED from /home/embed/Hardik_Projects/Motocade_Projects/client_code/motocade_android_code/app/src/main/AndroidManifest.xml:50:19-86
activity#com.motocade.com.main.activity.NumberVerificationActivity
ADDED from /home/embed/Hardik_Projects/Motocade_Projects/client_code/motocade_android_code/app/src/main/AndroidManifest.xml:56:9-58:58
	android:screenOrientation
		ADDED from /home/embed/Hardik_Projects/Motocade_Projects/client_code/motocade_android_code/app/src/main/AndroidManifest.xml:57:13-49
	android:theme
		ADDED from /home/embed/Hardik_Projects/Motocade_Projects/client_code/motocade_android_code/app/src/main/AndroidManifest.xml:58:13-56
	android:name
		ADDED from /home/embed/Hardik_Projects/Motocade_Projects/client_code/motocade_android_code/app/src/main/AndroidManifest.xml:56:19-91
activity#com.motocade.com.main.activity.HomePageActivity
ADDED from /home/embed/Hardik_Projects/Motocade_Projects/client_code/motocade_android_code/app/src/main/AndroidManifest.xml:61:9-63:58
	android:screenOrientation
		ADDED from /home/embed/Hardik_Projects/Motocade_Projects/client_code/motocade_android_code/app/src/main/AndroidManifest.xml:62:13-49
	android:theme
		ADDED from /home/embed/Hardik_Projects/Motocade_Projects/client_code/motocade_android_code/app/src/main/AndroidManifest.xml:63:13-56
	android:name
		ADDED from /home/embed/Hardik_Projects/Motocade_Projects/client_code/motocade_android_code/app/src/main/AndroidManifest.xml:61:19-81
activity#com.motocade.com.main.activity.ForgotPasswordActivity
ADDED from /home/embed/Hardik_Projects/Motocade_Projects/client_code/motocade_android_code/app/src/main/AndroidManifest.xml:66:9-68:58
	android:screenOrientation
		ADDED from /home/embed/Hardik_Projects/Motocade_Projects/client_code/motocade_android_code/app/src/main/AndroidManifest.xml:67:13-49
	android:theme
		ADDED from /home/embed/Hardik_Projects/Motocade_Projects/client_code/motocade_android_code/app/src/main/AndroidManifest.xml:68:13-56
	android:name
		ADDED from /home/embed/Hardik_Projects/Motocade_Projects/client_code/motocade_android_code/app/src/main/AndroidManifest.xml:66:19-87
activity#com.motocade.com.main.activity.ProfileSettingActivity
ADDED from /home/embed/Hardik_Projects/Motocade_Projects/client_code/motocade_android_code/app/src/main/AndroidManifest.xml:71:9-73:58
	android:screenOrientation
		ADDED from /home/embed/Hardik_Projects/Motocade_Projects/client_code/motocade_android_code/app/src/main/AndroidManifest.xml:72:13-49
	android:theme
		ADDED from /home/embed/Hardik_Projects/Motocade_Projects/client_code/motocade_android_code/app/src/main/AndroidManifest.xml:73:13-56
	android:name
		ADDED from /home/embed/Hardik_Projects/Motocade_Projects/client_code/motocade_android_code/app/src/main/AndroidManifest.xml:71:19-87
activity#com.motocade.com.main.activity.EditProfileActivity
ADDED from /home/embed/Hardik_Projects/Motocade_Projects/client_code/motocade_android_code/app/src/main/AndroidManifest.xml:76:9-78:58
	android:screenOrientation
		ADDED from /home/embed/Hardik_Projects/Motocade_Projects/client_code/motocade_android_code/app/src/main/AndroidManifest.xml:77:13-49
	android:theme
		ADDED from /home/embed/Hardik_Projects/Motocade_Projects/client_code/motocade_android_code/app/src/main/AndroidManifest.xml:78:13-56
	android:name
		ADDED from /home/embed/Hardik_Projects/Motocade_Projects/client_code/motocade_android_code/app/src/main/AndroidManifest.xml:76:19-84
activity#com.motocade.com.main.activity.VerifyPhoneNoActivity
ADDED from /home/embed/Hardik_Projects/Motocade_Projects/client_code/motocade_android_code/app/src/main/AndroidManifest.xml:81:9-83:58
	android:screenOrientation
		ADDED from /home/embed/Hardik_Projects/Motocade_Projects/client_code/motocade_android_code/app/src/main/AndroidManifest.xml:82:13-49
	android:theme
		ADDED from /home/embed/Hardik_Projects/Motocade_Projects/client_code/motocade_android_code/app/src/main/AndroidManifest.xml:83:13-56
	android:name
		ADDED from /home/embed/Hardik_Projects/Motocade_Projects/client_code/motocade_android_code/app/src/main/AndroidManifest.xml:81:19-86
activity#com.motocade.com.main.activity.VerifyEmailIdActivity
ADDED from /home/embed/Hardik_Projects/Motocade_Projects/client_code/motocade_android_code/app/src/main/AndroidManifest.xml:86:9-88:58
	android:screenOrientation
		ADDED from /home/embed/Hardik_Projects/Motocade_Projects/client_code/motocade_android_code/app/src/main/AndroidManifest.xml:87:13-49
	android:theme
		ADDED from /home/embed/Hardik_Projects/Motocade_Projects/client_code/motocade_android_code/app/src/main/AndroidManifest.xml:88:13-56
	android:name
		ADDED from /home/embed/Hardik_Projects/Motocade_Projects/client_code/motocade_android_code/app/src/main/AndroidManifest.xml:86:19-86
activity#com.motocade.com.main.activity.ProfileNumberVerifyActivity
ADDED from /home/embed/Hardik_Projects/Motocade_Projects/client_code/motocade_android_code/app/src/main/AndroidManifest.xml:91:9-93:58
	android:screenOrientation
		ADDED from /home/embed/Hardik_Projects/Motocade_Projects/client_code/motocade_android_code/app/src/main/AndroidManifest.xml:92:13-49
	android:theme
		ADDED from /home/embed/Hardik_Projects/Motocade_Projects/client_code/motocade_android_code/app/src/main/AndroidManifest.xml:93:13-56
	android:name
		ADDED from /home/embed/Hardik_Projects/Motocade_Projects/client_code/motocade_android_code/app/src/main/AndroidManifest.xml:91:19-92
activity#com.motocade.com.main.activity.NotificationActivity
ADDED from /home/embed/Hardik_Projects/Motocade_Projects/client_code/motocade_android_code/app/src/main/AndroidManifest.xml:96:9-98:58
	android:screenOrientation
		ADDED from /home/embed/Hardik_Projects/Motocade_Projects/client_code/motocade_android_code/app/src/main/AndroidManifest.xml:97:13-49
	android:theme
		ADDED from /home/embed/Hardik_Projects/Motocade_Projects/client_code/motocade_android_code/app/src/main/AndroidManifest.xml:98:13-56
	android:name
		ADDED from /home/embed/Hardik_Projects/Motocade_Projects/client_code/motocade_android_code/app/src/main/AndroidManifest.xml:96:19-85
activity#com.motocade.com.main.activity.FilterActivity
ADDED from /home/embed/Hardik_Projects/Motocade_Projects/client_code/motocade_android_code/app/src/main/AndroidManifest.xml:101:9-103:58
	android:screenOrientation
		ADDED from /home/embed/Hardik_Projects/Motocade_Projects/client_code/motocade_android_code/app/src/main/AndroidManifest.xml:102:13-49
	android:theme
		ADDED from /home/embed/Hardik_Projects/Motocade_Projects/client_code/motocade_android_code/app/src/main/AndroidManifest.xml:103:13-56
	android:name
		ADDED from /home/embed/Hardik_Projects/Motocade_Projects/client_code/motocade_android_code/app/src/main/AndroidManifest.xml:101:19-79
activity#com.motocade.com.main.activity.SelfProfileActivity
ADDED from /home/embed/Hardik_Projects/Motocade_Projects/client_code/motocade_android_code/app/src/main/AndroidManifest.xml:106:9-108:58
	android:screenOrientation
		ADDED from /home/embed/Hardik_Projects/Motocade_Projects/client_code/motocade_android_code/app/src/main/AndroidManifest.xml:107:13-49
	android:theme
		ADDED from /home/embed/Hardik_Projects/Motocade_Projects/client_code/motocade_android_code/app/src/main/AndroidManifest.xml:108:13-56
	android:name
		ADDED from /home/embed/Hardik_Projects/Motocade_Projects/client_code/motocade_android_code/app/src/main/AndroidManifest.xml:106:19-84
activity#com.motocade.com.main.activity.products.ProductDetailsActivity
ADDED from /home/embed/Hardik_Projects/Motocade_Projects/client_code/motocade_android_code/app/src/main/AndroidManifest.xml:111:9-114:15
	android:screenOrientation
		ADDED from /home/embed/Hardik_Projects/Motocade_Projects/client_code/motocade_android_code/app/src/main/AndroidManifest.xml:112:13-49
	android:theme
		ADDED from /home/embed/Hardik_Projects/Motocade_Projects/client_code/motocade_android_code/app/src/main/AndroidManifest.xml:113:13-56
	android:name
		ADDED from /home/embed/Hardik_Projects/Motocade_Projects/client_code/motocade_android_code/app/src/main/AndroidManifest.xml:111:19-96
activity#com.motocade.com.main.activity.products.ReportProductActivity
ADDED from /home/embed/Hardik_Projects/Motocade_Projects/client_code/motocade_android_code/app/src/main/AndroidManifest.xml:117:9-120:58
	android:screenOrientation
		ADDED from /home/embed/Hardik_Projects/Motocade_Projects/client_code/motocade_android_code/app/src/main/AndroidManifest.xml:118:13-49
	android:windowSoftInputMode
		ADDED from /home/embed/Hardik_Projects/Motocade_Projects/client_code/motocade_android_code/app/src/main/AndroidManifest.xml:119:13-52
	android:theme
		ADDED from /home/embed/Hardik_Projects/Motocade_Projects/client_code/motocade_android_code/app/src/main/AndroidManifest.xml:120:13-56
	android:name
		ADDED from /home/embed/Hardik_Projects/Motocade_Projects/client_code/motocade_android_code/app/src/main/AndroidManifest.xml:117:19-95
activity#com.motocade.com.main.activity.ReportUserActivity
ADDED from /home/embed/Hardik_Projects/Motocade_Projects/client_code/motocade_android_code/app/src/main/AndroidManifest.xml:123:9-126:58
	android:screenOrientation
		ADDED from /home/embed/Hardik_Projects/Motocade_Projects/client_code/motocade_android_code/app/src/main/AndroidManifest.xml:124:13-49
	android:windowSoftInputMode
		ADDED from /home/embed/Hardik_Projects/Motocade_Projects/client_code/motocade_android_code/app/src/main/AndroidManifest.xml:125:13-52
	android:theme
		ADDED from /home/embed/Hardik_Projects/Motocade_Projects/client_code/motocade_android_code/app/src/main/AndroidManifest.xml:126:13-56
	android:name
		ADDED from /home/embed/Hardik_Projects/Motocade_Projects/client_code/motocade_android_code/app/src/main/AndroidManifest.xml:123:19-83
activity#com.motocade.com.main.activity.products.ProductsMapActivity
ADDED from /home/embed/Hardik_Projects/Motocade_Projects/client_code/motocade_android_code/app/src/main/AndroidManifest.xml:129:9-131:58
	android:screenOrientation
		ADDED from /home/embed/Hardik_Projects/Motocade_Projects/client_code/motocade_android_code/app/src/main/AndroidManifest.xml:130:13-49
	android:theme
		ADDED from /home/embed/Hardik_Projects/Motocade_Projects/client_code/motocade_android_code/app/src/main/AndroidManifest.xml:131:13-56
	android:name
		ADDED from /home/embed/Hardik_Projects/Motocade_Projects/client_code/motocade_android_code/app/src/main/AndroidManifest.xml:129:19-93
activity#com.motocade.com.main.activity.products.ProductImagesActivity
ADDED from /home/embed/Hardik_Projects/Motocade_Projects/client_code/motocade_android_code/app/src/main/AndroidManifest.xml:134:9-137:15
	android:screenOrientation
		ADDED from /home/embed/Hardik_Projects/Motocade_Projects/client_code/motocade_android_code/app/src/main/AndroidManifest.xml:135:13-49
	android:theme
		ADDED from /home/embed/Hardik_Projects/Motocade_Projects/client_code/motocade_android_code/app/src/main/AndroidManifest.xml:136:13-50
	android:name
		ADDED from /home/embed/Hardik_Projects/Motocade_Projects/client_code/motocade_android_code/app/src/main/AndroidManifest.xml:134:19-95
activity#com.motocade.com.main.activity.products.ProductReviewActivity
ADDED from /home/embed/Hardik_Projects/Motocade_Projects/client_code/motocade_android_code/app/src/main/AndroidManifest.xml:140:9-143:15
	android:screenOrientation
		ADDED from /home/embed/Hardik_Projects/Motocade_Projects/client_code/motocade_android_code/app/src/main/AndroidManifest.xml:141:13-49
	android:theme
		ADDED from /home/embed/Hardik_Projects/Motocade_Projects/client_code/motocade_android_code/app/src/main/AndroidManifest.xml:142:13-56
	android:name
		ADDED from /home/embed/Hardik_Projects/Motocade_Projects/client_code/motocade_android_code/app/src/main/AndroidManifest.xml:140:19-95
activity#com.motocade.com.main.activity.SelfFollowingActivity
ADDED from /home/embed/Hardik_Projects/Motocade_Projects/client_code/motocade_android_code/app/src/main/AndroidManifest.xml:146:9-148:58
	android:screenOrientation
		ADDED from /home/embed/Hardik_Projects/Motocade_Projects/client_code/motocade_android_code/app/src/main/AndroidManifest.xml:147:13-49
	android:theme
		ADDED from /home/embed/Hardik_Projects/Motocade_Projects/client_code/motocade_android_code/app/src/main/AndroidManifest.xml:148:13-56
	android:name
		ADDED from /home/embed/Hardik_Projects/Motocade_Projects/client_code/motocade_android_code/app/src/main/AndroidManifest.xml:146:19-86
activity#com.motocade.com.main.activity.UserFollowingActivity
ADDED from /home/embed/Hardik_Projects/Motocade_Projects/client_code/motocade_android_code/app/src/main/AndroidManifest.xml:151:9-153:58
	android:screenOrientation
		ADDED from /home/embed/Hardik_Projects/Motocade_Projects/client_code/motocade_android_code/app/src/main/AndroidManifest.xml:152:13-49
	android:theme
		ADDED from /home/embed/Hardik_Projects/Motocade_Projects/client_code/motocade_android_code/app/src/main/AndroidManifest.xml:153:13-56
	android:name
		ADDED from /home/embed/Hardik_Projects/Motocade_Projects/client_code/motocade_android_code/app/src/main/AndroidManifest.xml:151:19-86
activity#com.motocade.com.main.activity.DiscoverPeopleActivity
ADDED from /home/embed/Hardik_Projects/Motocade_Projects/client_code/motocade_android_code/app/src/main/AndroidManifest.xml:156:9-158:58
	android:screenOrientation
		ADDED from /home/embed/Hardik_Projects/Motocade_Projects/client_code/motocade_android_code/app/src/main/AndroidManifest.xml:157:13-49
	android:theme
		ADDED from /home/embed/Hardik_Projects/Motocade_Projects/client_code/motocade_android_code/app/src/main/AndroidManifest.xml:158:13-56
	android:name
		ADDED from /home/embed/Hardik_Projects/Motocade_Projects/client_code/motocade_android_code/app/src/main/AndroidManifest.xml:156:19-87
activity#com.motocade.com.main.activity.PhoneContactsActivity
ADDED from /home/embed/Hardik_Projects/Motocade_Projects/client_code/motocade_android_code/app/src/main/AndroidManifest.xml:161:9-163:58
	android:screenOrientation
		ADDED from /home/embed/Hardik_Projects/Motocade_Projects/client_code/motocade_android_code/app/src/main/AndroidManifest.xml:162:13-49
	android:theme
		ADDED from /home/embed/Hardik_Projects/Motocade_Projects/client_code/motocade_android_code/app/src/main/AndroidManifest.xml:163:13-56
	android:name
		ADDED from /home/embed/Hardik_Projects/Motocade_Projects/client_code/motocade_android_code/app/src/main/AndroidManifest.xml:161:19-86
activity#com.motocade.com.main.activity.FacebookFriendsActivity
ADDED from /home/embed/Hardik_Projects/Motocade_Projects/client_code/motocade_android_code/app/src/main/AndroidManifest.xml:166:9-168:58
	android:screenOrientation
		ADDED from /home/embed/Hardik_Projects/Motocade_Projects/client_code/motocade_android_code/app/src/main/AndroidManifest.xml:167:13-49
	android:theme
		ADDED from /home/embed/Hardik_Projects/Motocade_Projects/client_code/motocade_android_code/app/src/main/AndroidManifest.xml:168:13-56
	android:name
		ADDED from /home/embed/Hardik_Projects/Motocade_Projects/client_code/motocade_android_code/app/src/main/AndroidManifest.xml:166:19-88
activity#com.motocade.com.main.activity.UserLikesActivity
ADDED from /home/embed/Hardik_Projects/Motocade_Projects/client_code/motocade_android_code/app/src/main/AndroidManifest.xml:171:9-173:58
	android:screenOrientation
		ADDED from /home/embed/Hardik_Projects/Motocade_Projects/client_code/motocade_android_code/app/src/main/AndroidManifest.xml:172:13-49
	android:theme
		ADDED from /home/embed/Hardik_Projects/Motocade_Projects/client_code/motocade_android_code/app/src/main/AndroidManifest.xml:173:13-56
	android:name
		ADDED from /home/embed/Hardik_Projects/Motocade_Projects/client_code/motocade_android_code/app/src/main/AndroidManifest.xml:171:19-82
activity#com.motocade.com.main.activity.MakeOfferActivity
ADDED from /home/embed/Hardik_Projects/Motocade_Projects/client_code/motocade_android_code/app/src/main/AndroidManifest.xml:176:9-178:58
	android:screenOrientation
		ADDED from /home/embed/Hardik_Projects/Motocade_Projects/client_code/motocade_android_code/app/src/main/AndroidManifest.xml:177:13-49
	android:theme
		ADDED from /home/embed/Hardik_Projects/Motocade_Projects/client_code/motocade_android_code/app/src/main/AndroidManifest.xml:178:13-56
	android:name
		ADDED from /home/embed/Hardik_Projects/Motocade_Projects/client_code/motocade_android_code/app/src/main/AndroidManifest.xml:176:19-82
activity#com.motocade.com.main.activity.CameraActivity
ADDED from /home/embed/Hardik_Projects/Motocade_Projects/client_code/motocade_android_code/app/src/main/AndroidManifest.xml:181:9-183:58
	android:screenOrientation
		ADDED from /home/embed/Hardik_Projects/Motocade_Projects/client_code/motocade_android_code/app/src/main/AndroidManifest.xml:182:13-49
	android:theme
		ADDED from /home/embed/Hardik_Projects/Motocade_Projects/client_code/motocade_android_code/app/src/main/AndroidManifest.xml:183:13-56
	android:name
		ADDED from /home/embed/Hardik_Projects/Motocade_Projects/client_code/motocade_android_code/app/src/main/AndroidManifest.xml:181:19-79
activity#com.motocade.com.main.activity.Camera2Activity
ADDED from /home/embed/Hardik_Projects/Motocade_Projects/client_code/motocade_android_code/app/src/main/AndroidManifest.xml:186:9-188:58
	android:screenOrientation
		ADDED from /home/embed/Hardik_Projects/Motocade_Projects/client_code/motocade_android_code/app/src/main/AndroidManifest.xml:187:13-49
	android:theme
		ADDED from /home/embed/Hardik_Projects/Motocade_Projects/client_code/motocade_android_code/app/src/main/AndroidManifest.xml:188:13-56
	android:name
		ADDED from /home/embed/Hardik_Projects/Motocade_Projects/client_code/motocade_android_code/app/src/main/AndroidManifest.xml:186:19-80
activity#com.motocade.com.main.activity.GalleryActivity
ADDED from /home/embed/Hardik_Projects/Motocade_Projects/client_code/motocade_android_code/app/src/main/AndroidManifest.xml:191:9-193:58
	android:screenOrientation
		ADDED from /home/embed/Hardik_Projects/Motocade_Projects/client_code/motocade_android_code/app/src/main/AndroidManifest.xml:192:13-49
	android:theme
		ADDED from /home/embed/Hardik_Projects/Motocade_Projects/client_code/motocade_android_code/app/src/main/AndroidManifest.xml:193:13-56
	android:name
		ADDED from /home/embed/Hardik_Projects/Motocade_Projects/client_code/motocade_android_code/app/src/main/AndroidManifest.xml:191:19-80
activity#com.motocade.com.main.activity.SearchProductActivity
ADDED from /home/embed/Hardik_Projects/Motocade_Projects/client_code/motocade_android_code/app/src/main/AndroidManifest.xml:196:9-198:58
	android:screenOrientation
		ADDED from /home/embed/Hardik_Projects/Motocade_Projects/client_code/motocade_android_code/app/src/main/AndroidManifest.xml:197:13-49
	android:theme
		ADDED from /home/embed/Hardik_Projects/Motocade_Projects/client_code/motocade_android_code/app/src/main/AndroidManifest.xml:198:13-56
	android:name
		ADDED from /home/embed/Hardik_Projects/Motocade_Projects/client_code/motocade_android_code/app/src/main/AndroidManifest.xml:196:19-86
activity#com.motocade.com.main.activity.PostProductActivity
ADDED from /home/embed/Hardik_Projects/Motocade_Projects/client_code/motocade_android_code/app/src/main/AndroidManifest.xml:201:9-203:58
	android:screenOrientation
		ADDED from /home/embed/Hardik_Projects/Motocade_Projects/client_code/motocade_android_code/app/src/main/AndroidManifest.xml:202:13-49
	android:theme
		ADDED from /home/embed/Hardik_Projects/Motocade_Projects/client_code/motocade_android_code/app/src/main/AndroidManifest.xml:203:13-56
	android:name
		ADDED from /home/embed/Hardik_Projects/Motocade_Projects/client_code/motocade_android_code/app/src/main/AndroidManifest.xml:201:19-84
activity#com.motocade.com.main.activity.UpdatePostActivity
ADDED from /home/embed/Hardik_Projects/Motocade_Projects/client_code/motocade_android_code/app/src/main/AndroidManifest.xml:206:9-208:58
	android:screenOrientation
		ADDED from /home/embed/Hardik_Projects/Motocade_Projects/client_code/motocade_android_code/app/src/main/AndroidManifest.xml:207:13-49
	android:theme
		ADDED from /home/embed/Hardik_Projects/Motocade_Projects/client_code/motocade_android_code/app/src/main/AndroidManifest.xml:208:13-56
	android:name
		ADDED from /home/embed/Hardik_Projects/Motocade_Projects/client_code/motocade_android_code/app/src/main/AndroidManifest.xml:206:19-83
activity#com.motocade.com.main.activity.ProductCategoryActivity
ADDED from /home/embed/Hardik_Projects/Motocade_Projects/client_code/motocade_android_code/app/src/main/AndroidManifest.xml:211:9-213:58
	android:screenOrientation
		ADDED from /home/embed/Hardik_Projects/Motocade_Projects/client_code/motocade_android_code/app/src/main/AndroidManifest.xml:212:13-49
	android:theme
		ADDED from /home/embed/Hardik_Projects/Motocade_Projects/client_code/motocade_android_code/app/src/main/AndroidManifest.xml:213:13-56
	android:name
		ADDED from /home/embed/Hardik_Projects/Motocade_Projects/client_code/motocade_android_code/app/src/main/AndroidManifest.xml:211:19-88
activity#com.motocade.com.main.activity.PostConditionsActivity
ADDED from /home/embed/Hardik_Projects/Motocade_Projects/client_code/motocade_android_code/app/src/main/AndroidManifest.xml:216:9-218:58
	android:screenOrientation
		ADDED from /home/embed/Hardik_Projects/Motocade_Projects/client_code/motocade_android_code/app/src/main/AndroidManifest.xml:217:13-49
	android:theme
		ADDED from /home/embed/Hardik_Projects/Motocade_Projects/client_code/motocade_android_code/app/src/main/AndroidManifest.xml:218:13-56
	android:name
		ADDED from /home/embed/Hardik_Projects/Motocade_Projects/client_code/motocade_android_code/app/src/main/AndroidManifest.xml:216:19-87
activity#com.motocade.com.main.activity.CurrencyListActivity
ADDED from /home/embed/Hardik_Projects/Motocade_Projects/client_code/motocade_android_code/app/src/main/AndroidManifest.xml:221:9-223:58
	android:screenOrientation
		ADDED from /home/embed/Hardik_Projects/Motocade_Projects/client_code/motocade_android_code/app/src/main/AndroidManifest.xml:222:13-49
	android:theme
		ADDED from /home/embed/Hardik_Projects/Motocade_Projects/client_code/motocade_android_code/app/src/main/AndroidManifest.xml:223:13-56
	android:name
		ADDED from /home/embed/Hardik_Projects/Motocade_Projects/client_code/motocade_android_code/app/src/main/AndroidManifest.xml:221:19-85
activity#com.motocade.com.main.activity.ChangeLocationActivity
ADDED from /home/embed/Hardik_Projects/Motocade_Projects/client_code/motocade_android_code/app/src/main/AndroidManifest.xml:226:9-228:58
	android:screenOrientation
		ADDED from /home/embed/Hardik_Projects/Motocade_Projects/client_code/motocade_android_code/app/src/main/AndroidManifest.xml:227:13-49
	android:theme
		ADDED from /home/embed/Hardik_Projects/Motocade_Projects/client_code/motocade_android_code/app/src/main/AndroidManifest.xml:228:13-56
	android:name
		ADDED from /home/embed/Hardik_Projects/Motocade_Projects/client_code/motocade_android_code/app/src/main/AndroidManifest.xml:226:19-87
activity#com.motocade.com.main.activity.UserProfileActivity
ADDED from /home/embed/Hardik_Projects/Motocade_Projects/client_code/motocade_android_code/app/src/main/AndroidManifest.xml:231:9-233:58
	android:screenOrientation
		ADDED from /home/embed/Hardik_Projects/Motocade_Projects/client_code/motocade_android_code/app/src/main/AndroidManifest.xml:232:13-49
	android:theme
		ADDED from /home/embed/Hardik_Projects/Motocade_Projects/client_code/motocade_android_code/app/src/main/AndroidManifest.xml:233:13-56
	android:name
		ADDED from /home/embed/Hardik_Projects/Motocade_Projects/client_code/motocade_android_code/app/src/main/AndroidManifest.xml:231:19-84
activity#com.motocade.com.main.activity.EditProductActivity
ADDED from /home/embed/Hardik_Projects/Motocade_Projects/client_code/motocade_android_code/app/src/main/AndroidManifest.xml:236:9-238:49
	android:screenOrientation
		ADDED from /home/embed/Hardik_Projects/Motocade_Projects/client_code/motocade_android_code/app/src/main/AndroidManifest.xml:237:13-49
	android:theme
		ADDED from /home/embed/Hardik_Projects/Motocade_Projects/client_code/motocade_android_code/app/src/main/AndroidManifest.xml:238:13-47
	android:name
		ADDED from /home/embed/Hardik_Projects/Motocade_Projects/client_code/motocade_android_code/app/src/main/AndroidManifest.xml:236:19-84
activity#com.motocade.com.main.activity.RateUserActivity
ADDED from /home/embed/Hardik_Projects/Motocade_Projects/client_code/motocade_android_code/app/src/main/AndroidManifest.xml:241:9-243:49
	android:screenOrientation
		ADDED from /home/embed/Hardik_Projects/Motocade_Projects/client_code/motocade_android_code/app/src/main/AndroidManifest.xml:242:13-49
	android:theme
		ADDED from /home/embed/Hardik_Projects/Motocade_Projects/client_code/motocade_android_code/app/src/main/AndroidManifest.xml:243:13-47
	android:name
		ADDED from /home/embed/Hardik_Projects/Motocade_Projects/client_code/motocade_android_code/app/src/main/AndroidManifest.xml:241:19-81
activity#com.motocade.com.main.activity.SelectBuyerActivity
ADDED from /home/embed/Hardik_Projects/Motocade_Projects/client_code/motocade_android_code/app/src/main/AndroidManifest.xml:246:9-248:49
	android:screenOrientation
		ADDED from /home/embed/Hardik_Projects/Motocade_Projects/client_code/motocade_android_code/app/src/main/AndroidManifest.xml:247:13-49
	android:theme
		ADDED from /home/embed/Hardik_Projects/Motocade_Projects/client_code/motocade_android_code/app/src/main/AndroidManifest.xml:248:13-47
	android:name
		ADDED from /home/embed/Hardik_Projects/Motocade_Projects/client_code/motocade_android_code/app/src/main/AndroidManifest.xml:246:19-84
activity#com.motocade.com.main.activity.ConnectPaypalActivity
ADDED from /home/embed/Hardik_Projects/Motocade_Projects/client_code/motocade_android_code/app/src/main/AndroidManifest.xml:251:9-255:15
	android:screenOrientation
		ADDED from /home/embed/Hardik_Projects/Motocade_Projects/client_code/motocade_android_code/app/src/main/AndroidManifest.xml:252:13-49
	android:windowSoftInputMode
		ADDED from /home/embed/Hardik_Projects/Motocade_Projects/client_code/motocade_android_code/app/src/main/AndroidManifest.xml:254:13-55
	android:theme
		ADDED from /home/embed/Hardik_Projects/Motocade_Projects/client_code/motocade_android_code/app/src/main/AndroidManifest.xml:253:13-47
	android:name
		ADDED from /home/embed/Hardik_Projects/Motocade_Projects/client_code/motocade_android_code/app/src/main/AndroidManifest.xml:251:19-86
activity#com.motocade.com.main.activity.InsightActivity
ADDED from /home/embed/Hardik_Projects/Motocade_Projects/client_code/motocade_android_code/app/src/main/AndroidManifest.xml:258:9-262:15
	android:screenOrientation
		ADDED from /home/embed/Hardik_Projects/Motocade_Projects/client_code/motocade_android_code/app/src/main/AndroidManifest.xml:259:13-49
	android:windowSoftInputMode
		ADDED from /home/embed/Hardik_Projects/Motocade_Projects/client_code/motocade_android_code/app/src/main/AndroidManifest.xml:261:13-55
	android:theme
		ADDED from /home/embed/Hardik_Projects/Motocade_Projects/client_code/motocade_android_code/app/src/main/AndroidManifest.xml:260:13-47
	android:name
		ADDED from /home/embed/Hardik_Projects/Motocade_Projects/client_code/motocade_android_code/app/src/main/AndroidManifest.xml:258:19-80
activity#com.motocade.com.main.activity.PromoteItemActivity
ADDED from /home/embed/Hardik_Projects/Motocade_Projects/client_code/motocade_android_code/app/src/main/AndroidManifest.xml:265:9-269:15
	android:screenOrientation
		ADDED from /home/embed/Hardik_Projects/Motocade_Projects/client_code/motocade_android_code/app/src/main/AndroidManifest.xml:266:13-49
	android:windowSoftInputMode
		ADDED from /home/embed/Hardik_Projects/Motocade_Projects/client_code/motocade_android_code/app/src/main/AndroidManifest.xml:268:13-55
	android:theme
		ADDED from /home/embed/Hardik_Projects/Motocade_Projects/client_code/motocade_android_code/app/src/main/AndroidManifest.xml:267:13-47
	android:name
		ADDED from /home/embed/Hardik_Projects/Motocade_Projects/client_code/motocade_android_code/app/src/main/AndroidManifest.xml:265:19-84
activity#com.motocade.com.main.activity.GetTotalClicksActivity
ADDED from /home/embed/Hardik_Projects/Motocade_Projects/client_code/motocade_android_code/app/src/main/AndroidManifest.xml:272:9-276:15
	android:screenOrientation
		ADDED from /home/embed/Hardik_Projects/Motocade_Projects/client_code/motocade_android_code/app/src/main/AndroidManifest.xml:273:13-49
	android:windowSoftInputMode
		ADDED from /home/embed/Hardik_Projects/Motocade_Projects/client_code/motocade_android_code/app/src/main/AndroidManifest.xml:275:13-55
	android:theme
		ADDED from /home/embed/Hardik_Projects/Motocade_Projects/client_code/motocade_android_code/app/src/main/AndroidManifest.xml:274:13-47
	android:name
		ADDED from /home/embed/Hardik_Projects/Motocade_Projects/client_code/motocade_android_code/app/src/main/AndroidManifest.xml:272:19-87
activity#com.motocade.com.main.activity.WebViewActivity
ADDED from /home/embed/Hardik_Projects/Motocade_Projects/client_code/motocade_android_code/app/src/main/AndroidManifest.xml:279:9-281:49
	android:screenOrientation
		ADDED from /home/embed/Hardik_Projects/Motocade_Projects/client_code/motocade_android_code/app/src/main/AndroidManifest.xml:280:13-49
	android:theme
		ADDED from /home/embed/Hardik_Projects/Motocade_Projects/client_code/motocade_android_code/app/src/main/AndroidManifest.xml:281:13-47
	android:name
		ADDED from /home/embed/Hardik_Projects/Motocade_Projects/client_code/motocade_android_code/app/src/main/AndroidManifest.xml:279:19-80
provider#android.support.v4.content.FileProvider
ADDED from /home/embed/Hardik_Projects/Motocade_Projects/client_code/motocade_android_code/app/src/main/AndroidManifest.xml:283:9-291:20
	android:authorities
		ADDED from /home/embed/Hardik_Projects/Motocade_Projects/client_code/motocade_android_code/app/src/main/AndroidManifest.xml:285:13-60
		INJECTED from /home/embed/Hardik_Projects/Motocade_Projects/client_code/motocade_android_code/app/src/main/AndroidManifest.xml
	android:grantUriPermissions
		ADDED from /home/embed/Hardik_Projects/Motocade_Projects/client_code/motocade_android_code/app/src/main/AndroidManifest.xml:287:13-47
	android:exported
		ADDED from /home/embed/Hardik_Projects/Motocade_Projects/client_code/motocade_android_code/app/src/main/AndroidManifest.xml:286:13-37
	android:name
		ADDED from /home/embed/Hardik_Projects/Motocade_Projects/client_code/motocade_android_code/app/src/main/AndroidManifest.xml:284:13-67
meta-data#android.support.FILE_PROVIDER_PATHS
ADDED from /home/embed/Hardik_Projects/Motocade_Projects/client_code/motocade_android_code/app/src/main/AndroidManifest.xml:288:13-290:57
	android:resource
		ADDED from /home/embed/Hardik_Projects/Motocade_Projects/client_code/motocade_android_code/app/src/main/AndroidManifest.xml:290:17-55
	android:name
		ADDED from /home/embed/Hardik_Projects/Motocade_Projects/client_code/motocade_android_code/app/src/main/AndroidManifest.xml:289:17-67
activity#com.facebook.FacebookActivity
ADDED from /home/embed/Hardik_Projects/Motocade_Projects/client_code/motocade_android_code/app/src/main/AndroidManifest.xml:294:9-298:15
	android:label
		ADDED from /home/embed/Hardik_Projects/Motocade_Projects/client_code/motocade_android_code/app/src/main/AndroidManifest.xml:297:13-45
	android:configChanges
		ADDED from /home/embed/Hardik_Projects/Motocade_Projects/client_code/motocade_android_code/app/src/main/AndroidManifest.xml:296:13-96
	android:name
		ADDED from /home/embed/Hardik_Projects/Motocade_Projects/client_code/motocade_android_code/app/src/main/AndroidManifest.xml:295:13-57
activity#co.simplecrop.android.simplecropimage.CropImage
ADDED from /home/embed/Hardik_Projects/Motocade_Projects/client_code/motocade_android_code/app/src/main/AndroidManifest.xml:300:9-83
	android:name
		ADDED from /home/embed/Hardik_Projects/Motocade_Projects/client_code/motocade_android_code/app/src/main/AndroidManifest.xml:300:19-81
meta-data#com.google.android.geo.API_KEY
ADDED from /home/embed/Hardik_Projects/Motocade_Projects/client_code/motocade_android_code/app/src/main/AndroidManifest.xml:302:9-304:58
	android:value
		ADDED from /home/embed/Hardik_Projects/Motocade_Projects/client_code/motocade_android_code/app/src/main/AndroidManifest.xml:304:13-55
	android:name
		ADDED from /home/embed/Hardik_Projects/Motocade_Projects/client_code/motocade_android_code/app/src/main/AndroidManifest.xml:303:13-58
meta-data#com.facebook.sdk.ApplicationId
ADDED from /home/embed/Hardik_Projects/Motocade_Projects/client_code/motocade_android_code/app/src/main/AndroidManifest.xml:306:9-308:55
	android:value
		ADDED from /home/embed/Hardik_Projects/Motocade_Projects/client_code/motocade_android_code/app/src/main/AndroidManifest.xml:308:13-52
	android:name
		ADDED from /home/embed/Hardik_Projects/Motocade_Projects/client_code/motocade_android_code/app/src/main/AndroidManifest.xml:307:13-58
meta-data#com.google.android.gms.version
ADDED from /home/embed/Hardik_Projects/Motocade_Projects/client_code/motocade_android_code/app/src/main/AndroidManifest.xml:310:9-312:69
MERGED from [com.google.android.gms:play-services-basement:10.2.6] /home/embed/.android/build-cache/c367c674b35c19b4faf03ed169522b6c0ba2e3ea/output/AndroidManifest.xml:20:9-121
	android:value
		ADDED from /home/embed/Hardik_Projects/Motocade_Projects/client_code/motocade_android_code/app/src/main/AndroidManifest.xml:312:13-66
	android:name
		ADDED from /home/embed/Hardik_Projects/Motocade_Projects/client_code/motocade_android_code/app/src/main/AndroidManifest.xml:311:13-58
service#com.motocade.com.moveCameraObj.FetchAddressIntentService
ADDED from /home/embed/Hardik_Projects/Motocade_Projects/client_code/motocade_android_code/app/src/main/AndroidManifest.xml:315:9-317:40
	android:exported
		ADDED from /home/embed/Hardik_Projects/Motocade_Projects/client_code/motocade_android_code/app/src/main/AndroidManifest.xml:317:13-37
	android:name
		ADDED from /home/embed/Hardik_Projects/Motocade_Projects/client_code/motocade_android_code/app/src/main/AndroidManifest.xml:316:13-84
meta-data#io.fabric.ApiKey
ADDED from /home/embed/Hardik_Projects/Motocade_Projects/client_code/motocade_android_code/app/src/main/AndroidManifest.xml:319:9-321:72
	android:value
		ADDED from /home/embed/Hardik_Projects/Motocade_Projects/client_code/motocade_android_code/app/src/main/AndroidManifest.xml:321:13-69
	android:name
		ADDED from /home/embed/Hardik_Projects/Motocade_Projects/client_code/motocade_android_code/app/src/main/AndroidManifest.xml:320:13-44
service#com.motocade.com.fcm_push_notification.MyFirebaseMessagingService
ADDED from /home/embed/Hardik_Projects/Motocade_Projects/client_code/motocade_android_code/app/src/main/AndroidManifest.xml:325:9-329:19
	android:name
		ADDED from /home/embed/Hardik_Projects/Motocade_Projects/client_code/motocade_android_code/app/src/main/AndroidManifest.xml:325:18-98
intent-filter#com.google.firebase.MESSAGING_EVENT
ADDED from /home/embed/Hardik_Projects/Motocade_Projects/client_code/motocade_android_code/app/src/main/AndroidManifest.xml:326:13-328:29
action#com.google.firebase.MESSAGING_EVENT
ADDED from /home/embed/Hardik_Projects/Motocade_Projects/client_code/motocade_android_code/app/src/main/AndroidManifest.xml:327:17-78
	android:name
		ADDED from /home/embed/Hardik_Projects/Motocade_Projects/client_code/motocade_android_code/app/src/main/AndroidManifest.xml:327:25-75
service#com.motocade.com.fcm_push_notification.MyFirebaseInstanceIDService
ADDED from /home/embed/Hardik_Projects/Motocade_Projects/client_code/motocade_android_code/app/src/main/AndroidManifest.xml:331:9-335:19
	android:name
		ADDED from /home/embed/Hardik_Projects/Motocade_Projects/client_code/motocade_android_code/app/src/main/AndroidManifest.xml:331:18-99
intent-filter#com.google.firebase.INSTANCE_ID_EVENT
ADDED from /home/embed/Hardik_Projects/Motocade_Projects/client_code/motocade_android_code/app/src/main/AndroidManifest.xml:332:13-334:29
action#com.google.firebase.INSTANCE_ID_EVENT
ADDED from /home/embed/Hardik_Projects/Motocade_Projects/client_code/motocade_android_code/app/src/main/AndroidManifest.xml:333:17-80
	android:name
		ADDED from /home/embed/Hardik_Projects/Motocade_Projects/client_code/motocade_android_code/app/src/main/AndroidManifest.xml:333:25-77
meta-data#com.google.firebase.messaging.default_notification_icon
ADDED from /home/embed/Hardik_Projects/Motocade_Projects/client_code/motocade_android_code/app/src/main/AndroidManifest.xml:338:9-340:56
	android:resource
		ADDED from /home/embed/Hardik_Projects/Motocade_Projects/client_code/motocade_android_code/app/src/main/AndroidManifest.xml:340:13-53
	android:name
		ADDED from /home/embed/Hardik_Projects/Motocade_Projects/client_code/motocade_android_code/app/src/main/AndroidManifest.xml:339:13-83
meta-data#com.google.firebase.messaging.default_notification_color
ADDED from /home/embed/Hardik_Projects/Motocade_Projects/client_code/motocade_android_code/app/src/main/AndroidManifest.xml:342:9-344:54
	android:resource
		ADDED from /home/embed/Hardik_Projects/Motocade_Projects/client_code/motocade_android_code/app/src/main/AndroidManifest.xml:344:13-51
	android:name
		ADDED from /home/embed/Hardik_Projects/Motocade_Projects/client_code/motocade_android_code/app/src/main/AndroidManifest.xml:343:13-84
activity#com.motocade.com.mqttchat.ImageCropper.CropImageActivity
ADDED from /home/embed/Hardik_Projects/Motocade_Projects/client_code/motocade_android_code/app/src/main/AndroidManifest.xml:347:9-349:59
	android:theme
		ADDED from /home/embed/Hardik_Projects/Motocade_Projects/client_code/motocade_android_code/app/src/main/AndroidManifest.xml:349:13-56
	android:name
		ADDED from /home/embed/Hardik_Projects/Motocade_Projects/client_code/motocade_android_code/app/src/main/AndroidManifest.xml:348:13-84
activity#com.motocade.com.mqttchat.Activities.MediaHistory
ADDED from /home/embed/Hardik_Projects/Motocade_Projects/client_code/motocade_android_code/app/src/main/AndroidManifest.xml:350:9-353:58
	android:configChanges
		ADDED from /home/embed/Hardik_Projects/Motocade_Projects/client_code/motocade_android_code/app/src/main/AndroidManifest.xml:352:13-96
	android:theme
		ADDED from /home/embed/Hardik_Projects/Motocade_Projects/client_code/motocade_android_code/app/src/main/AndroidManifest.xml:353:13-56
	android:name
		ADDED from /home/embed/Hardik_Projects/Motocade_Projects/client_code/motocade_android_code/app/src/main/AndroidManifest.xml:351:13-77
activity#com.motocade.com.mqttchat.Activities.MediaHistory_FullScreenImage
ADDED from /home/embed/Hardik_Projects/Motocade_Projects/client_code/motocade_android_code/app/src/main/AndroidManifest.xml:354:9-357:58
	android:configChanges
		ADDED from /home/embed/Hardik_Projects/Motocade_Projects/client_code/motocade_android_code/app/src/main/AndroidManifest.xml:356:13-96
	android:theme
		ADDED from /home/embed/Hardik_Projects/Motocade_Projects/client_code/motocade_android_code/app/src/main/AndroidManifest.xml:357:13-56
	android:name
		ADDED from /home/embed/Hardik_Projects/Motocade_Projects/client_code/motocade_android_code/app/src/main/AndroidManifest.xml:355:13-93
activity#com.motocade.com.mqttchat.Activities.MediaHistory_FullScreenVideo
ADDED from /home/embed/Hardik_Projects/Motocade_Projects/client_code/motocade_android_code/app/src/main/AndroidManifest.xml:358:9-361:58
	android:configChanges
		ADDED from /home/embed/Hardik_Projects/Motocade_Projects/client_code/motocade_android_code/app/src/main/AndroidManifest.xml:360:13-96
	android:theme
		ADDED from /home/embed/Hardik_Projects/Motocade_Projects/client_code/motocade_android_code/app/src/main/AndroidManifest.xml:361:13-56
	android:name
		ADDED from /home/embed/Hardik_Projects/Motocade_Projects/client_code/motocade_android_code/app/src/main/AndroidManifest.xml:359:13-93
activity#com.motocade.com.mqttchat.Giphy.GifPlayer
ADDED from /home/embed/Hardik_Projects/Motocade_Projects/client_code/motocade_android_code/app/src/main/AndroidManifest.xml:362:9-366:56
	android:windowSoftInputMode
		ADDED from /home/embed/Hardik_Projects/Motocade_Projects/client_code/motocade_android_code/app/src/main/AndroidManifest.xml:366:13-54
	android:configChanges
		ADDED from /home/embed/Hardik_Projects/Motocade_Projects/client_code/motocade_android_code/app/src/main/AndroidManifest.xml:364:13-96
	android:theme
		ADDED from /home/embed/Hardik_Projects/Motocade_Projects/client_code/motocade_android_code/app/src/main/AndroidManifest.xml:365:13-56
	android:name
		ADDED from /home/embed/Hardik_Projects/Motocade_Projects/client_code/motocade_android_code/app/src/main/AndroidManifest.xml:363:13-69
activity#com.motocade.com.mqttchat.Giphy.SelectGIF
ADDED from /home/embed/Hardik_Projects/Motocade_Projects/client_code/motocade_android_code/app/src/main/AndroidManifest.xml:367:9-371:56
	android:windowSoftInputMode
		ADDED from /home/embed/Hardik_Projects/Motocade_Projects/client_code/motocade_android_code/app/src/main/AndroidManifest.xml:371:13-54
	android:configChanges
		ADDED from /home/embed/Hardik_Projects/Motocade_Projects/client_code/motocade_android_code/app/src/main/AndroidManifest.xml:369:13-96
	android:theme
		ADDED from /home/embed/Hardik_Projects/Motocade_Projects/client_code/motocade_android_code/app/src/main/AndroidManifest.xml:370:13-56
	android:name
		ADDED from /home/embed/Hardik_Projects/Motocade_Projects/client_code/motocade_android_code/app/src/main/AndroidManifest.xml:368:13-69
activity#com.motocade.com.mqttchat.SetupProfile.OwnProfileDetails
ADDED from /home/embed/Hardik_Projects/Motocade_Projects/client_code/motocade_android_code/app/src/main/AndroidManifest.xml:372:9-376:58
	android:screenOrientation
		ADDED from /home/embed/Hardik_Projects/Motocade_Projects/client_code/motocade_android_code/app/src/main/AndroidManifest.xml:375:13-49
	android:configChanges
		ADDED from /home/embed/Hardik_Projects/Motocade_Projects/client_code/motocade_android_code/app/src/main/AndroidManifest.xml:374:13-96
	android:theme
		ADDED from /home/embed/Hardik_Projects/Motocade_Projects/client_code/motocade_android_code/app/src/main/AndroidManifest.xml:376:13-56
	android:name
		ADDED from /home/embed/Hardik_Projects/Motocade_Projects/client_code/motocade_android_code/app/src/main/AndroidManifest.xml:373:13-84
service#org.eclipse.paho.android.service.MqttService
ADDED from /home/embed/Hardik_Projects/Motocade_Projects/client_code/motocade_android_code/app/src/main/AndroidManifest.xml:379:9-80
	android:name
		ADDED from /home/embed/Hardik_Projects/Motocade_Projects/client_code/motocade_android_code/app/src/main/AndroidManifest.xml:379:18-77
service#com.motocade.com.mqttchat.Service.AppKilled
ADDED from /home/embed/Hardik_Projects/Motocade_Projects/client_code/motocade_android_code/app/src/main/AndroidManifest.xml:380:9-79
	android:name
		ADDED from /home/embed/Hardik_Projects/Motocade_Projects/client_code/motocade_android_code/app/src/main/AndroidManifest.xml:380:18-76
receiver#com.motocade.com.mqttchat.Utilities.TimeChangedReceiver
ADDED from /home/embed/Hardik_Projects/Motocade_Projects/client_code/motocade_android_code/app/src/main/AndroidManifest.xml:381:9-390:20
	android:permission
		ADDED from /home/embed/Hardik_Projects/Motocade_Projects/client_code/motocade_android_code/app/src/main/AndroidManifest.xml:383:13-70
	android:name
		ADDED from /home/embed/Hardik_Projects/Motocade_Projects/client_code/motocade_android_code/app/src/main/AndroidManifest.xml:382:13-83
intent-filter#android.intent.action.ACTION_TIME_CHANGED+android.intent.action.TIMEZONE_CHANGED+android.intent.action.TIME_SET+android.intent.action.TIME_TICK
ADDED from /home/embed/Hardik_Projects/Motocade_Projects/client_code/motocade_android_code/app/src/main/AndroidManifest.xml:384:13-389:29
action#android.intent.action.TIME_TICK
ADDED from /home/embed/Hardik_Projects/Motocade_Projects/client_code/motocade_android_code/app/src/main/AndroidManifest.xml:385:17-74
	android:name
		ADDED from /home/embed/Hardik_Projects/Motocade_Projects/client_code/motocade_android_code/app/src/main/AndroidManifest.xml:385:25-71
action#android.intent.action.ACTION_TIME_CHANGED
ADDED from /home/embed/Hardik_Projects/Motocade_Projects/client_code/motocade_android_code/app/src/main/AndroidManifest.xml:386:17-84
	android:name
		ADDED from /home/embed/Hardik_Projects/Motocade_Projects/client_code/motocade_android_code/app/src/main/AndroidManifest.xml:386:25-81
action#android.intent.action.TIME_SET
ADDED from /home/embed/Hardik_Projects/Motocade_Projects/client_code/motocade_android_code/app/src/main/AndroidManifest.xml:387:17-73
	android:name
		ADDED from /home/embed/Hardik_Projects/Motocade_Projects/client_code/motocade_android_code/app/src/main/AndroidManifest.xml:387:25-70
action#android.intent.action.TIMEZONE_CHANGED
ADDED from /home/embed/Hardik_Projects/Motocade_Projects/client_code/motocade_android_code/app/src/main/AndroidManifest.xml:388:17-81
	android:name
		ADDED from /home/embed/Hardik_Projects/Motocade_Projects/client_code/motocade_android_code/app/src/main/AndroidManifest.xml:388:25-78
receiver#com.motocade.com.mqttchat.Utilities.BootCompletedIntentReceiver
ADDED from /home/embed/Hardik_Projects/Motocade_Projects/client_code/motocade_android_code/app/src/main/AndroidManifest.xml:391:9-405:20
	android:name
		ADDED from /home/embed/Hardik_Projects/Motocade_Projects/client_code/motocade_android_code/app/src/main/AndroidManifest.xml:391:19-97
intent-filter#android.intent.action.BOOT_COMPLETED+android.intent.category.DEFAULT
ADDED from /home/embed/Hardik_Projects/Motocade_Projects/client_code/motocade_android_code/app/src/main/AndroidManifest.xml:392:13-395:29
action#android.intent.action.BOOT_COMPLETED
ADDED from /home/embed/Hardik_Projects/Motocade_Projects/client_code/motocade_android_code/app/src/main/AndroidManifest.xml:393:17-79
	android:name
		ADDED from /home/embed/Hardik_Projects/Motocade_Projects/client_code/motocade_android_code/app/src/main/AndroidManifest.xml:393:25-76
category#android.intent.category.DEFAULT
ADDED from /home/embed/Hardik_Projects/Motocade_Projects/client_code/motocade_android_code/app/src/main/AndroidManifest.xml:394:17-76
	android:name
		ADDED from /home/embed/Hardik_Projects/Motocade_Projects/client_code/motocade_android_code/app/src/main/AndroidManifest.xml:394:27-73
intent-filter#android.intent.action.QUICKBOOT_POWERON+android.intent.category.DEFAULT
ADDED from /home/embed/Hardik_Projects/Motocade_Projects/client_code/motocade_android_code/app/src/main/AndroidManifest.xml:397:13-400:29
action#android.intent.action.QUICKBOOT_POWERON
ADDED from /home/embed/Hardik_Projects/Motocade_Projects/client_code/motocade_android_code/app/src/main/AndroidManifest.xml:399:17-82
	android:name
		ADDED from /home/embed/Hardik_Projects/Motocade_Projects/client_code/motocade_android_code/app/src/main/AndroidManifest.xml:399:25-79
intent-filter#android.intent.category.DEFAULT+com.htc.intent.action.QUICKBOOT_POWERON
ADDED from /home/embed/Hardik_Projects/Motocade_Projects/client_code/motocade_android_code/app/src/main/AndroidManifest.xml:401:13-404:29
action#com.htc.intent.action.QUICKBOOT_POWERON
ADDED from /home/embed/Hardik_Projects/Motocade_Projects/client_code/motocade_android_code/app/src/main/AndroidManifest.xml:403:17-82
	android:name
		ADDED from /home/embed/Hardik_Projects/Motocade_Projects/client_code/motocade_android_code/app/src/main/AndroidManifest.xml:403:25-79
receiver#com.motocade.com.mqttchat.Utilities.ShutdownReceiver
ADDED from /home/embed/Hardik_Projects/Motocade_Projects/client_code/motocade_android_code/app/src/main/AndroidManifest.xml:406:9-419:20
	android:name
		ADDED from /home/embed/Hardik_Projects/Motocade_Projects/client_code/motocade_android_code/app/src/main/AndroidManifest.xml:406:19-86
intent-filter#android.intent.action.ACTION_SHUTDOWN+android.intent.category.DEFAULT
ADDED from /home/embed/Hardik_Projects/Motocade_Projects/client_code/motocade_android_code/app/src/main/AndroidManifest.xml:407:13-410:29
action#android.intent.action.ACTION_SHUTDOWN
ADDED from /home/embed/Hardik_Projects/Motocade_Projects/client_code/motocade_android_code/app/src/main/AndroidManifest.xml:409:17-79
	android:name
		ADDED from /home/embed/Hardik_Projects/Motocade_Projects/client_code/motocade_android_code/app/src/main/AndroidManifest.xml:409:25-77
intent-filter#android.intent.category.DEFAULT+com.htc.intent.action.QUICKBOOT_POWEROFF
ADDED from /home/embed/Hardik_Projects/Motocade_Projects/client_code/motocade_android_code/app/src/main/AndroidManifest.xml:411:13-414:29
action#com.htc.intent.action.QUICKBOOT_POWEROFF
ADDED from /home/embed/Hardik_Projects/Motocade_Projects/client_code/motocade_android_code/app/src/main/AndroidManifest.xml:413:17-83
	android:name
		ADDED from /home/embed/Hardik_Projects/Motocade_Projects/client_code/motocade_android_code/app/src/main/AndroidManifest.xml:413:25-80
intent-filter#android.intent.action.QUICKBOOT_POWEROFF+android.intent.category.DEFAULT
ADDED from /home/embed/Hardik_Projects/Motocade_Projects/client_code/motocade_android_code/app/src/main/AndroidManifest.xml:415:13-418:29
action#android.intent.action.QUICKBOOT_POWEROFF
ADDED from /home/embed/Hardik_Projects/Motocade_Projects/client_code/motocade_android_code/app/src/main/AndroidManifest.xml:417:17-83
	android:name
		ADDED from /home/embed/Hardik_Projects/Motocade_Projects/client_code/motocade_android_code/app/src/main/AndroidManifest.xml:417:25-80
activity#com.motocade.com.mqttchat.Activities.ChatMessageScreen
ADDED from /home/embed/Hardik_Projects/Motocade_Projects/client_code/motocade_android_code/app/src/main/AndroidManifest.xml:423:9-426:58
	android:configChanges
		ADDED from /home/embed/Hardik_Projects/Motocade_Projects/client_code/motocade_android_code/app/src/main/AndroidManifest.xml:425:13-96
	android:theme
		ADDED from /home/embed/Hardik_Projects/Motocade_Projects/client_code/motocade_android_code/app/src/main/AndroidManifest.xml:426:13-56
	android:name
		ADDED from /home/embed/Hardik_Projects/Motocade_Projects/client_code/motocade_android_code/app/src/main/AndroidManifest.xml:424:13-66
activity#com.motocade.com.mqttchat.Activities.CounterPricePage
ADDED from /home/embed/Hardik_Projects/Motocade_Projects/client_code/motocade_android_code/app/src/main/AndroidManifest.xml:428:9-430:58
	android:screenOrientation
		ADDED from /home/embed/Hardik_Projects/Motocade_Projects/client_code/motocade_android_code/app/src/main/AndroidManifest.xml:429:13-49
	android:theme
		ADDED from /home/embed/Hardik_Projects/Motocade_Projects/client_code/motocade_android_code/app/src/main/AndroidManifest.xml:430:13-56
	android:name
		ADDED from /home/embed/Hardik_Projects/Motocade_Projects/client_code/motocade_android_code/app/src/main/AndroidManifest.xml:428:19-71
uses-sdk
INJECTED from /home/embed/Hardik_Projects/Motocade_Projects/client_code/motocade_android_code/app/src/main/AndroidManifest.xml reason: use-sdk injection requested
MERGED from [com.android.support:multidex:1.0.1] /home/embed/.android/build-cache/40a44bb3f8d363a44863afccab40a37f66380897/output/AndroidManifest.xml:18:5-42
MERGED from [motocade_android_code:lib:unspecified] /home/embed/Hardik_Projects/Motocade_Projects/client_code/motocade_android_code/lib/build/intermediates/bundles/default/AndroidManifest.xml:5:5-7:41
MERGED from [com.crashlytics.sdk.android:crashlytics:2.7.0] /home/embed/.android/build-cache/26f3ead7446bc6a9bf43af91628fb9e28183ad7a/output/AndroidManifest.xml:7:5-43
MERGED from [com.crashlytics.sdk.android:beta:1.2.6] /home/embed/.android/build-cache/5602cf192dbe21f16534d02e9252e65559b4d020/output/AndroidManifest.xml:7:5-43
MERGED from [com.crashlytics.sdk.android:crashlytics-core:2.4.0] /home/embed/.android/build-cache/cbc192205097924521ca54a6e01c9361a2dc1755/output/AndroidManifest.xml:50:5-43
MERGED from [com.crashlytics.sdk.android:answers:1.4.0] /home/embed/.android/build-cache/8dfdcad09124a03ec997ac17b9c941266b0aa4b4/output/AndroidManifest.xml:7:5-43
MERGED from [io.fabric.sdk.android:fabric:1.4.0] /home/embed/.android/build-cache/b1995977d0acf2e0e733ffbcaa838824f582de11/output/AndroidManifest.xml:27:5-43
MERGED from [motocade_android_code:simplecropmodule:unspecified] /home/embed/Hardik_Projects/Motocade_Projects/client_code/motocade_android_code/simplecropmodule/build/intermediates/bundles/default/AndroidManifest.xml:7:5-9:41
MERGED from [com.android.support:cardview-v7:25.3.1] /home/embed/.android/build-cache/eb61dd3646f1a8f9c6212c2badac561910a94147/output/AndroidManifest.xml:20:5-43
MERGED from [com.android.support:design:25.3.1] /home/embed/.android/build-cache/af341d176c19f6506d46a64aefc69f666bbcd94f/output/AndroidManifest.xml:21:5-23:62
MERGED from [com.android.support:recyclerview-v7:25.3.1] /home/embed/.android/build-cache/6fd7352c7ec473fe7f002fea6da8cff446831d0f/output/AndroidManifest.xml:20:5-43
MERGED from [com.android.support:transition:25.3.1] /home/embed/.android/build-cache/3065f009c3c14ffca24b8c53a25d8ac41e8b86f5/output/AndroidManifest.xml:20:5-44
MERGED from [com.facebook.android:facebook-android-sdk:4.6.0] /home/embed/.android/build-cache/139aa10d469a42e669cf154ba7b2d612636a15e0/output/AndroidManifest.xml:24:5-26:41
MERGED from [com.google.android.gms:play-services-places:10.2.6] /home/embed/.android/build-cache/a1270f7fb32dfc54c5a15f2a3091c8358468bdf8/output/AndroidManifest.xml:17:5-43
MERGED from [com.google.android.gms:play-services-maps:10.2.6] /home/embed/.android/build-cache/d0aea552e33610d82def2fde0c28d0ccff555d23/output/AndroidManifest.xml:23:5-43
MERGED from [com.google.android.gms:play-services-location:10.2.6] /home/embed/.android/build-cache/99d371e9ebab3222d28aae8552396b4d45280e60/output/AndroidManifest.xml:3:5-43
MERGED from [com.google.android.gms:play-services-auth:10.2.6] /home/embed/.android/build-cache/72ea539cc4941c983090607c98d2c1d4600b3935/output/AndroidManifest.xml:17:5-43
MERGED from [com.google.android.gms:play-services-auth-base:10.2.6] /home/embed/.android/build-cache/fb824669c4b39da21452777ec9bc01e31d38698b/output/AndroidManifest.xml:4:5-43
MERGED from [com.google.firebase:firebase-messaging:10.2.6] /home/embed/.android/build-cache/81ed2a5070d22b5049f1b1d7c8a32452d5006022/output/AndroidManifest.xml:17:5-43
MERGED from [com.google.firebase:firebase-ads:10.2.6] /home/embed/.android/build-cache/d48917c22c2b70b5bafd294edc7004ad03b753fe/output/AndroidManifest.xml:4:5-43
MERGED from [com.google.android.gms:play-services-ads:10.2.6] /home/embed/.android/build-cache/400291a498512e54fa99b360c91af6c1edb5866d/output/AndroidManifest.xml:17:5-43
MERGED from [com.google.android.gms:play-services-ads-lite:10.2.6] /home/embed/.android/build-cache/ade2a9661efd22bfa241e63e897a1ec557e449a1/output/AndroidManifest.xml:22:5-43
MERGED from [com.google.android.gms:play-services-clearcut:10.2.6] /home/embed/.android/build-cache/cb65d268b0f11518f155a6bf526a030b5e2829a7/output/AndroidManifest.xml:17:5-43
MERGED from [com.google.android.gms:play-services-base:10.2.6] /home/embed/.android/build-cache/defbfdd0e84623faddfe6229231069426eef1618/output/AndroidManifest.xml:17:5-43
MERGED from [com.google.android.gms:play-services-gass:10.2.6] /home/embed/.android/build-cache/0cd4b0c56259e3705df6a023e44f98539b12b6fd/output/AndroidManifest.xml:3:5-43
MERGED from [com.android.volley:volley:1.0.0] /home/embed/.android/build-cache/0245bf7ed516f18df74f5ae30455552b7113b83d/output/AndroidManifest.xml:7:5-43
MERGED from [com.couchbase.lite:couchbase-lite-android:1.4.0] /home/embed/.android/build-cache/1c3907f732e28c29ed0b59648a6f68c61a7d888e/output/AndroidManifest.xml:7:5-9:41
MERGED from [com.couchbase.lite:couchbase-lite-android-sqlite-custom:1.4.0] /home/embed/.android/build-cache/593ce9455d31cc21f673626d1a7c08c696ec2dc6/output/AndroidManifest.xml:7:5-9:41
MERGED from [com.android.support.constraint:constraint-layout:1.0.2] /home/embed/.android/build-cache/4463a8b6773b56234d71785af87070dea682482b/output/AndroidManifest.xml:5:5-7:41
MERGED from [motocade_android_code:innapp_purches:unspecified] /home/embed/Hardik_Projects/Motocade_Projects/client_code/motocade_android_code/innapp_purches/build/intermediates/bundles/default/AndroidManifest.xml:7:5-9:41
MERGED from [com.android.support:appcompat-v7:25.3.1] /home/embed/.android/build-cache/c8bf9efabcf0cec2f1ce4742cf738bed545c7c4f/output/AndroidManifest.xml:21:5-23:78
MERGED from [com.android.support:animated-vector-drawable:25.3.1] /home/embed/.android/build-cache/90b361c05ca5c195c81ed427d33f67840f9a6398/output/AndroidManifest.xml:20:5-44
MERGED from [com.android.support:support-vector-drawable:25.3.1] /home/embed/.android/build-cache/ff7883c095269aa09919ac6ce8926a7ce52242e0/output/AndroidManifest.xml:20:5-43
MERGED from [com.google.firebase:firebase-core:10.2.6] /home/embed/.android/build-cache/d0a29fbeceeedd4601cf6a3a0ec31d399b574bf8/output/AndroidManifest.xml:4:5-43
MERGED from [com.google.firebase:firebase-analytics:10.2.6] /home/embed/.android/build-cache/df9fb2b7e50eebde892936c04625b3e4324bd7f8/output/AndroidManifest.xml:17:5-43
MERGED from [com.google.firebase:firebase-analytics-impl:10.2.6] /home/embed/.android/build-cache/694881e75b8f54ef962fc75207eadea24e3869be/output/AndroidManifest.xml:17:5-43
MERGED from [com.google.firebase:firebase-iid:10.2.6] /home/embed/.android/build-cache/58d80fbb84b32fdfb1a91a12abab3c29f2f1e52b/output/AndroidManifest.xml:17:5-43
MERGED from [com.google.firebase:firebase-common:10.2.6] /home/embed/.android/build-cache/1521895b07c862418adac879876b5fe280e12073/output/AndroidManifest.xml:3:5-43
MERGED from [com.google.android.gms:play-services-tasks:10.2.6] /home/embed/.android/build-cache/5d7f6540dd3b6d7a1a8fa72bc4e33529652668b7/output/AndroidManifest.xml:3:5-43
MERGED from [com.google.android.gms:play-services-basement:10.2.6] /home/embed/.android/build-cache/c367c674b35c19b4faf03ed169522b6c0ba2e3ea/output/AndroidManifest.xml:17:5-43
MERGED from [com.android.support:support-v4:25.3.1] /home/embed/.android/build-cache/a9adb8991cebe8c2f23977caedea4f2a541a5d24/output/AndroidManifest.xml:21:5-23:54
MERGED from [com.android.support:support-fragment:25.3.1] /home/embed/.android/build-cache/5ba1385fc7a5ecb78376e1bd711e31b6964d89fb/output/AndroidManifest.xml:21:5-23:60
MERGED from [com.android.support:support-media-compat:25.3.1] /home/embed/.android/build-cache/16031099e15f66adfcb1b3147eb31ba5455df5a9/output/AndroidManifest.xml:21:5-23:63
MERGED from [com.android.support:support-core-ui:25.3.1] /home/embed/.android/build-cache/c6c1eebf2751b13ca3802c0817d7bff628b33937/output/AndroidManifest.xml:21:5-23:58
MERGED from [com.android.support:support-core-utils:25.3.1] /home/embed/.android/build-cache/5621c808ddef88c582398f4d5569dd03d4007dcb/output/AndroidManifest.xml:21:5-23:61
MERGED from [com.android.support:support-compat:25.3.1] /home/embed/.android/build-cache/8389dfbaaa960527a8ad29f3c710ec97f02eca4a/output/AndroidManifest.xml:21:5-23:58
	tools:overrideLibrary
		ADDED from [com.android.support:design:25.3.1] /home/embed/.android/build-cache/af341d176c19f6506d46a64aefc69f666bbcd94f/output/AndroidManifest.xml:23:9-59
	android:targetSdkVersion
		INJECTED from /home/embed/Hardik_Projects/Motocade_Projects/client_code/motocade_android_code/app/src/main/AndroidManifest.xml
		INJECTED from /home/embed/Hardik_Projects/Motocade_Projects/client_code/motocade_android_code/app/src/main/AndroidManifest.xml
	android:minSdkVersion
		INJECTED from /home/embed/Hardik_Projects/Motocade_Projects/client_code/motocade_android_code/app/src/main/AndroidManifest.xml
		INJECTED from /home/embed/Hardik_Projects/Motocade_Projects/client_code/motocade_android_code/app/src/main/AndroidManifest.xml
provider#com.crashlytics.android.CrashlyticsInitProvider
ADDED from [com.crashlytics.sdk.android:crashlytics:2.7.0] /home/embed/.android/build-cache/26f3ead7446bc6a9bf43af91628fb9e28183ad7a/output/AndroidManifest.xml:12:9-16:39
	android:authorities
		ADDED from [com.crashlytics.sdk.android:crashlytics:2.7.0] /home/embed/.android/build-cache/26f3ead7446bc6a9bf43af91628fb9e28183ad7a/output/AndroidManifest.xml:14:13-75
	android:exported
		ADDED from [com.crashlytics.sdk.android:crashlytics:2.7.0] /home/embed/.android/build-cache/26f3ead7446bc6a9bf43af91628fb9e28183ad7a/output/AndroidManifest.xml:15:13-37
	android:initOrder
		ADDED from [com.crashlytics.sdk.android:crashlytics:2.7.0] /home/embed/.android/build-cache/26f3ead7446bc6a9bf43af91628fb9e28183ad7a/output/AndroidManifest.xml:16:13-36
	android:name
		ADDED from [com.crashlytics.sdk.android:crashlytics:2.7.0] /home/embed/.android/build-cache/26f3ead7446bc6a9bf43af91628fb9e28183ad7a/output/AndroidManifest.xml:13:13-75
meta-data#android.support.VERSION
ADDED from [com.android.support:cardview-v7:25.3.1] /home/embed/.android/build-cache/eb61dd3646f1a8f9c6212c2badac561910a94147/output/AndroidManifest.xml:22:5-24:34
MERGED from [com.android.support:design:25.3.1] /home/embed/.android/build-cache/af341d176c19f6506d46a64aefc69f666bbcd94f/output/AndroidManifest.xml:25:5-27:34
MERGED from [com.android.support:recyclerview-v7:25.3.1] /home/embed/.android/build-cache/6fd7352c7ec473fe7f002fea6da8cff446831d0f/output/AndroidManifest.xml:22:5-24:34
MERGED from [com.android.support:transition:25.3.1] /home/embed/.android/build-cache/3065f009c3c14ffca24b8c53a25d8ac41e8b86f5/output/AndroidManifest.xml:22:5-24:34
MERGED from [com.android.support:appcompat-v7:25.3.1] /home/embed/.android/build-cache/c8bf9efabcf0cec2f1ce4742cf738bed545c7c4f/output/AndroidManifest.xml:25:5-27:34
MERGED from [com.android.support:animated-vector-drawable:25.3.1] /home/embed/.android/build-cache/90b361c05ca5c195c81ed427d33f67840f9a6398/output/AndroidManifest.xml:22:5-24:34
MERGED from [com.android.support:support-vector-drawable:25.3.1] /home/embed/.android/build-cache/ff7883c095269aa09919ac6ce8926a7ce52242e0/output/AndroidManifest.xml:22:5-24:34
MERGED from [com.android.support:support-v4:25.3.1] /home/embed/.android/build-cache/a9adb8991cebe8c2f23977caedea4f2a541a5d24/output/AndroidManifest.xml:25:5-27:34
MERGED from [com.android.support:support-fragment:25.3.1] /home/embed/.android/build-cache/5ba1385fc7a5ecb78376e1bd711e31b6964d89fb/output/AndroidManifest.xml:25:5-27:34
MERGED from [com.android.support:support-media-compat:25.3.1] /home/embed/.android/build-cache/16031099e15f66adfcb1b3147eb31ba5455df5a9/output/AndroidManifest.xml:25:5-27:34
MERGED from [com.android.support:support-core-ui:25.3.1] /home/embed/.android/build-cache/c6c1eebf2751b13ca3802c0817d7bff628b33937/output/AndroidManifest.xml:25:5-27:34
MERGED from [com.android.support:support-core-utils:25.3.1] /home/embed/.android/build-cache/5621c808ddef88c582398f4d5569dd03d4007dcb/output/AndroidManifest.xml:25:5-27:34
MERGED from [com.android.support:support-compat:25.3.1] /home/embed/.android/build-cache/8389dfbaaa960527a8ad29f3c710ec97f02eca4a/output/AndroidManifest.xml:25:5-27:34
	android:value
		ADDED from [com.android.support:cardview-v7:25.3.1] /home/embed/.android/build-cache/eb61dd3646f1a8f9c6212c2badac561910a94147/output/AndroidManifest.xml:24:9-31
	android:name
		ADDED from [com.android.support:cardview-v7:25.3.1] /home/embed/.android/build-cache/eb61dd3646f1a8f9c6212c2badac561910a94147/output/AndroidManifest.xml:23:9-47
uses-feature#0x00020000
ADDED from [com.google.android.gms:play-services-maps:10.2.6] /home/embed/.android/build-cache/d0aea552e33610d82def2fde0c28d0ccff555d23/output/AndroidManifest.xml:21:5-77
	android:glEsVersion
		ADDED from [com.google.android.gms:play-services-maps:10.2.6] /home/embed/.android/build-cache/d0aea552e33610d82def2fde0c28d0ccff555d23/output/AndroidManifest.xml:21:19-51
	android:required
		ADDED from [com.google.android.gms:play-services-maps:10.2.6] /home/embed/.android/build-cache/d0aea552e33610d82def2fde0c28d0ccff555d23/output/AndroidManifest.xml:21:52-75
activity#com.google.android.gms.auth.api.signin.internal.SignInHubActivity
ADDED from [com.google.android.gms:play-services-auth:10.2.6] /home/embed/.android/build-cache/72ea539cc4941c983090607c98d2c1d4600b3935/output/AndroidManifest.xml:20:9-189
	android:excludeFromRecents
		ADDED from [com.google.android.gms:play-services-auth:10.2.6] /home/embed/.android/build-cache/72ea539cc4941c983090607c98d2c1d4600b3935/output/AndroidManifest.xml:20:129-162
	android:exported
		ADDED from [com.google.android.gms:play-services-auth:10.2.6] /home/embed/.android/build-cache/72ea539cc4941c983090607c98d2c1d4600b3935/output/AndroidManifest.xml:20:163-187
	android:theme
		ADDED from [com.google.android.gms:play-services-auth:10.2.6] /home/embed/.android/build-cache/72ea539cc4941c983090607c98d2c1d4600b3935/output/AndroidManifest.xml:20:69-128
	android:name
		ADDED from [com.google.android.gms:play-services-auth:10.2.6] /home/embed/.android/build-cache/72ea539cc4941c983090607c98d2c1d4600b3935/output/AndroidManifest.xml:20:19-68
service#com.google.android.gms.auth.api.signin.RevocationBoundService
ADDED from [com.google.android.gms:play-services-auth:10.2.6] /home/embed/.android/build-cache/72ea539cc4941c983090607c98d2c1d4600b3935/output/AndroidManifest.xml:24:9-184
	android:exported
		ADDED from [com.google.android.gms:play-services-auth:10.2.6] /home/embed/.android/build-cache/72ea539cc4941c983090607c98d2c1d4600b3935/output/AndroidManifest.xml:24:64-87
	android:permission
		ADDED from [com.google.android.gms:play-services-auth:10.2.6] /home/embed/.android/build-cache/72ea539cc4941c983090607c98d2c1d4600b3935/output/AndroidManifest.xml:24:88-182
	android:name
		ADDED from [com.google.android.gms:play-services-auth:10.2.6] /home/embed/.android/build-cache/72ea539cc4941c983090607c98d2c1d4600b3935/output/AndroidManifest.xml:24:18-63
service#com.google.firebase.messaging.FirebaseMessagingService
ADDED from [com.google.firebase:firebase-messaging:10.2.6] /home/embed/.android/build-cache/81ed2a5070d22b5049f1b1d7c8a32452d5006022/output/AndroidManifest.xml:23:9-27:19
	android:exported
		ADDED from [com.google.firebase:firebase-messaging:10.2.6] /home/embed/.android/build-cache/81ed2a5070d22b5049f1b1d7c8a32452d5006022/output/AndroidManifest.xml:23:88-111
	android:name
		ADDED from [com.google.firebase:firebase-messaging:10.2.6] /home/embed/.android/build-cache/81ed2a5070d22b5049f1b1d7c8a32452d5006022/output/AndroidManifest.xml:23:18-87
activity#com.google.android.gms.ads.AdActivity
ADDED from [com.google.android.gms:play-services-ads-lite:10.2.6] /home/embed/.android/build-cache/ade2a9661efd22bfa241e63e897a1ec557e449a1/output/AndroidManifest.xml:25:9-232
	android:configChanges
		ADDED from [com.google.android.gms:play-services-ads-lite:10.2.6] /home/embed/.android/build-cache/ade2a9661efd22bfa241e63e897a1ec557e449a1/output/AndroidManifest.xml:25:72-181
	android:theme
		ADDED from [com.google.android.gms:play-services-ads-lite:10.2.6] /home/embed/.android/build-cache/ade2a9661efd22bfa241e63e897a1ec557e449a1/output/AndroidManifest.xml:25:182-230
	android:name
		ADDED from [com.google.android.gms:play-services-ads-lite:10.2.6] /home/embed/.android/build-cache/ade2a9661efd22bfa241e63e897a1ec557e449a1/output/AndroidManifest.xml:25:19-71
activity#com.google.android.gms.ads.purchase.InAppPurchaseActivity
ADDED from [com.google.android.gms:play-services-ads-lite:10.2.6] /home/embed/.android/build-cache/ade2a9661efd22bfa241e63e897a1ec557e449a1/output/AndroidManifest.xml:26:9-131
	android:theme
		ADDED from [com.google.android.gms:play-services-ads-lite:10.2.6] /home/embed/.android/build-cache/ade2a9661efd22bfa241e63e897a1ec557e449a1/output/AndroidManifest.xml:26:92-129
	android:name
		ADDED from [com.google.android.gms:play-services-ads-lite:10.2.6] /home/embed/.android/build-cache/ade2a9661efd22bfa241e63e897a1ec557e449a1/output/AndroidManifest.xml:26:19-91
activity#com.google.android.gms.common.api.GoogleApiActivity
ADDED from [com.google.android.gms:play-services-base:10.2.6] /home/embed/.android/build-cache/defbfdd0e84623faddfe6229231069426eef1618/output/AndroidManifest.xml:19:9-172
	android:exported
		ADDED from [com.google.android.gms:play-services-base:10.2.6] /home/embed/.android/build-cache/defbfdd0e84623faddfe6229231069426eef1618/output/AndroidManifest.xml:19:146-170
	android:theme
		ADDED from [com.google.android.gms:play-services-base:10.2.6] /home/embed/.android/build-cache/defbfdd0e84623faddfe6229231069426eef1618/output/AndroidManifest.xml:19:86-145
	android:name
		ADDED from [com.google.android.gms:play-services-base:10.2.6] /home/embed/.android/build-cache/defbfdd0e84623faddfe6229231069426eef1618/output/AndroidManifest.xml:19:19-85
uses-permission#com.android.vending.BILLING
ADDED from [motocade_android_code:innapp_purches:unspecified] /home/embed/Hardik_Projects/Motocade_Projects/client_code/motocade_android_code/innapp_purches/build/intermediates/bundles/default/AndroidManifest.xml:11:5-67
	android:name
		ADDED from [motocade_android_code:innapp_purches:unspecified] /home/embed/Hardik_Projects/Motocade_Projects/client_code/motocade_android_code/innapp_purches/build/intermediates/bundles/default/AndroidManifest.xml:11:22-64
receiver#com.google.android.gms.measurement.AppMeasurementReceiver
ADDED from [com.google.firebase:firebase-analytics:10.2.6] /home/embed/.android/build-cache/df9fb2b7e50eebde892936c04625b3e4324bd7f8/output/AndroidManifest.xml:25:7-26:18
MERGED from [com.google.firebase:firebase-analytics-impl:10.2.6] /home/embed/.android/build-cache/694881e75b8f54ef962fc75207eadea24e3869be/output/AndroidManifest.xml:25:7-26:18
	android:enabled
		ADDED from [com.google.firebase:firebase-analytics:10.2.6] /home/embed/.android/build-cache/df9fb2b7e50eebde892936c04625b3e4324bd7f8/output/AndroidManifest.xml:25:90-112
	android:exported
		ADDED from [com.google.firebase:firebase-analytics:10.2.6] /home/embed/.android/build-cache/df9fb2b7e50eebde892936c04625b3e4324bd7f8/output/AndroidManifest.xml:25:113-137
	android:name
		ADDED from [com.google.firebase:firebase-analytics:10.2.6] /home/embed/.android/build-cache/df9fb2b7e50eebde892936c04625b3e4324bd7f8/output/AndroidManifest.xml:25:17-89
receiver#com.google.android.gms.measurement.AppMeasurementInstallReferrerReceiver
ADDED from [com.google.firebase:firebase-analytics:10.2.6] /home/embed/.android/build-cache/df9fb2b7e50eebde892936c04625b3e4324bd7f8/output/AndroidManifest.xml:27:7-31:18
	android:enabled
		ADDED from [com.google.firebase:firebase-analytics:10.2.6] /home/embed/.android/build-cache/df9fb2b7e50eebde892936c04625b3e4324bd7f8/output/AndroidManifest.xml:27:162-184
	android:permission
		ADDED from [com.google.firebase:firebase-analytics:10.2.6] /home/embed/.android/build-cache/df9fb2b7e50eebde892936c04625b3e4324bd7f8/output/AndroidManifest.xml:27:105-161
	android:name
		ADDED from [com.google.firebase:firebase-analytics:10.2.6] /home/embed/.android/build-cache/df9fb2b7e50eebde892936c04625b3e4324bd7f8/output/AndroidManifest.xml:27:17-104
intent-filter#com.android.vending.INSTALL_REFERRER
ADDED from [com.google.firebase:firebase-analytics:10.2.6] /home/embed/.android/build-cache/df9fb2b7e50eebde892936c04625b3e4324bd7f8/output/AndroidManifest.xml:28:11-30:27
action#com.android.vending.INSTALL_REFERRER
ADDED from [com.google.firebase:firebase-analytics:10.2.6] /home/embed/.android/build-cache/df9fb2b7e50eebde892936c04625b3e4324bd7f8/output/AndroidManifest.xml:29:15-76
	android:name
		ADDED from [com.google.firebase:firebase-analytics:10.2.6] /home/embed/.android/build-cache/df9fb2b7e50eebde892936c04625b3e4324bd7f8/output/AndroidManifest.xml:29:23-74
service#com.google.android.gms.measurement.AppMeasurementService
ADDED from [com.google.firebase:firebase-analytics:10.2.6] /home/embed/.android/build-cache/df9fb2b7e50eebde892936c04625b3e4324bd7f8/output/AndroidManifest.xml:32:7-137
MERGED from [com.google.firebase:firebase-analytics-impl:10.2.6] /home/embed/.android/build-cache/694881e75b8f54ef962fc75207eadea24e3869be/output/AndroidManifest.xml:27:7-137
	android:enabled
		ADDED from [com.google.firebase:firebase-analytics:10.2.6] /home/embed/.android/build-cache/df9fb2b7e50eebde892936c04625b3e4324bd7f8/output/AndroidManifest.xml:32:88-110
	android:exported
		ADDED from [com.google.firebase:firebase-analytics:10.2.6] /home/embed/.android/build-cache/df9fb2b7e50eebde892936c04625b3e4324bd7f8/output/AndroidManifest.xml:32:111-135
	android:name
		ADDED from [com.google.firebase:firebase-analytics:10.2.6] /home/embed/.android/build-cache/df9fb2b7e50eebde892936c04625b3e4324bd7f8/output/AndroidManifest.xml:32:16-87
uses-permission#com.google.android.c2dm.permission.RECEIVE
ADDED from [com.google.firebase:firebase-iid:10.2.6] /home/embed/.android/build-cache/58d80fbb84b32fdfb1a91a12abab3c29f2f1e52b/output/AndroidManifest.xml:22:5-81
	android:name
		ADDED from [com.google.firebase:firebase-iid:10.2.6] /home/embed/.android/build-cache/58d80fbb84b32fdfb1a91a12abab3c29f2f1e52b/output/AndroidManifest.xml:22:22-79
permission#${applicationId}.permission.C2D_MESSAGE
ADDED from [com.google.firebase:firebase-iid:10.2.6] /home/embed/.android/build-cache/58d80fbb84b32fdfb1a91a12abab3c29f2f1e52b/output/AndroidManifest.xml:24:5-109
	android:protectionLevel
		ADDED from [com.google.firebase:firebase-iid:10.2.6] /home/embed/.android/build-cache/58d80fbb84b32fdfb1a91a12abab3c29f2f1e52b/output/AndroidManifest.xml:24:72-107
	android:name
		ADDED from [com.google.firebase:firebase-iid:10.2.6] /home/embed/.android/build-cache/58d80fbb84b32fdfb1a91a12abab3c29f2f1e52b/output/AndroidManifest.xml:24:17-71
uses-permission#${applicationId}.permission.C2D_MESSAGE
ADDED from [com.google.firebase:firebase-iid:10.2.6] /home/embed/.android/build-cache/58d80fbb84b32fdfb1a91a12abab3c29f2f1e52b/output/AndroidManifest.xml:26:5-78
	android:name
		ADDED from [com.google.firebase:firebase-iid:10.2.6] /home/embed/.android/build-cache/58d80fbb84b32fdfb1a91a12abab3c29f2f1e52b/output/AndroidManifest.xml:26:22-76
receiver#com.google.firebase.iid.FirebaseInstanceIdReceiver
ADDED from [com.google.firebase:firebase-iid:10.2.6] /home/embed/.android/build-cache/58d80fbb84b32fdfb1a91a12abab3c29f2f1e52b/output/AndroidManifest.xml:30:9-35:20
	android:exported
		ADDED from [com.google.firebase:firebase-iid:10.2.6] /home/embed/.android/build-cache/58d80fbb84b32fdfb1a91a12abab3c29f2f1e52b/output/AndroidManifest.xml:30:85-108
	android:permission
		ADDED from [com.google.firebase:firebase-iid:10.2.6] /home/embed/.android/build-cache/58d80fbb84b32fdfb1a91a12abab3c29f2f1e52b/output/AndroidManifest.xml:30:109-169
	android:name
		ADDED from [com.google.firebase:firebase-iid:10.2.6] /home/embed/.android/build-cache/58d80fbb84b32fdfb1a91a12abab3c29f2f1e52b/output/AndroidManifest.xml:30:19-84
intent-filter#${applicationId}+com.google.android.c2dm.intent.RECEIVE
ADDED from [com.google.firebase:firebase-iid:10.2.6] /home/embed/.android/build-cache/58d80fbb84b32fdfb1a91a12abab3c29f2f1e52b/output/AndroidManifest.xml:31:13-34:29
action#com.google.android.c2dm.intent.RECEIVE
ADDED from [com.google.firebase:firebase-iid:10.2.6] /home/embed/.android/build-cache/58d80fbb84b32fdfb1a91a12abab3c29f2f1e52b/output/AndroidManifest.xml:32:17-80
	android:name
		ADDED from [com.google.firebase:firebase-iid:10.2.6] /home/embed/.android/build-cache/58d80fbb84b32fdfb1a91a12abab3c29f2f1e52b/output/AndroidManifest.xml:32:25-78
category#${applicationId}
ADDED from [com.google.firebase:firebase-iid:10.2.6] /home/embed/.android/build-cache/58d80fbb84b32fdfb1a91a12abab3c29f2f1e52b/output/AndroidManifest.xml:33:17-60
	android:name
		ADDED from [com.google.firebase:firebase-iid:10.2.6] /home/embed/.android/build-cache/58d80fbb84b32fdfb1a91a12abab3c29f2f1e52b/output/AndroidManifest.xml:33:27-58
receiver#com.google.firebase.iid.FirebaseInstanceIdInternalReceiver
ADDED from [com.google.firebase:firebase-iid:10.2.6] /home/embed/.android/build-cache/58d80fbb84b32fdfb1a91a12abab3c29f2f1e52b/output/AndroidManifest.xml:39:9-119
	android:exported
		ADDED from [com.google.firebase:firebase-iid:10.2.6] /home/embed/.android/build-cache/58d80fbb84b32fdfb1a91a12abab3c29f2f1e52b/output/AndroidManifest.xml:39:93-117
	android:name
		ADDED from [com.google.firebase:firebase-iid:10.2.6] /home/embed/.android/build-cache/58d80fbb84b32fdfb1a91a12abab3c29f2f1e52b/output/AndroidManifest.xml:39:19-92
service#com.google.firebase.iid.FirebaseInstanceIdService
ADDED from [com.google.firebase:firebase-iid:10.2.6] /home/embed/.android/build-cache/58d80fbb84b32fdfb1a91a12abab3c29f2f1e52b/output/AndroidManifest.xml:43:9-47:19
	android:exported
		ADDED from [com.google.firebase:firebase-iid:10.2.6] /home/embed/.android/build-cache/58d80fbb84b32fdfb1a91a12abab3c29f2f1e52b/output/AndroidManifest.xml:43:83-106
	android:name
		ADDED from [com.google.firebase:firebase-iid:10.2.6] /home/embed/.android/build-cache/58d80fbb84b32fdfb1a91a12abab3c29f2f1e52b/output/AndroidManifest.xml:43:18-82
provider#com.google.firebase.provider.FirebaseInitProvider
ADDED from [com.google.firebase:firebase-common:10.2.6] /home/embed/.android/build-cache/1521895b07c862418adac879876b5fe280e12073/output/AndroidManifest.xml:6:9-194
	android:authorities
		ADDED from [com.google.firebase:firebase-common:10.2.6] /home/embed/.android/build-cache/1521895b07c862418adac879876b5fe280e12073/output/AndroidManifest.xml:6:19-78
	android:exported
		ADDED from [com.google.firebase:firebase-common:10.2.6] /home/embed/.android/build-cache/1521895b07c862418adac879876b5fe280e12073/output/AndroidManifest.xml:6:144-168
	android:initOrder
		ADDED from [com.google.firebase:firebase-common:10.2.6] /home/embed/.android/build-cache/1521895b07c862418adac879876b5fe280e12073/output/AndroidManifest.xml:6:169-192
	android:name
		ADDED from [com.google.firebase:firebase-common:10.2.6] /home/embed/.android/build-cache/1521895b07c862418adac879876b5fe280e12073/output/AndroidManifest.xml:6:79-143
